{
  "biomeCategories": [
    {
      "id": 0,
      "name": "Copain",
      "description": ""
    },
    {
      "id": 1,
      "name": "Forêt",
      "description": ""
    },
    {
      "id": 2,
      "name": "Montagne",
      "description": ""
    },
    {
      "id": 3,
      "name": "Plaine",
      "description": ""
    },
    {
      "id": 4,
      "name": "Désert",
      "description": ""
    },
    {
      "id": 5,
      "name": "Eau",
      "description": ""
    },
    {
      "id": 6,
      "name": "Caverne",
      "description": ""
    },
    {
      "id": 7,
      "name": "Urbain",
      "description": ""
    },
    {
      "id": 8,
      "name": "Inconnu",
      "description": ""
    },
    {
      "id": 9,
      "name": "Paradoxe",
      "description": ""
    }
  ]
}