{
  "emojis": [
    {
      "group": "Pokébloc",
      "name": "NB_Pokebloc_Violet",
      "path": "src/Assets/nigobot-3000-images/Emojis/Pokébloc/Normal/Violet.png"
    },
    {
      "group": "Pokébloc",
      "name": "NB_Pokebloc_Violet_Plus",
      "path": "src/Assets/nigobot-3000-images/Emojis/Pokébloc/Plus/Violet_plus.png"
    },
    {
      "group": "Pokébloc",
      "name": "NB_Pokebloc_Vert",
      "path": "src/Assets/nigobot-3000-images/Emojis/Pokébloc/Normal/Vert.png"
    },
    {
      "group": "Pokébloc",
      "name": "NB_Pokebloc_Vert_Plus",
      "path": "src/Assets/nigobot-3000-images/Emojis/Pokébloc/Plus/Vert_plus.png"
    },
    {
      "group": "Pokébloc",
      "name": "NB_Pokebloc_Rouge",
      "path": "src/Assets/nigobot-3000-images/Emojis/Pokébloc/Normal/Rouge.png"
    },
    {
      "group": "Pokébloc",
      "name": "NB_Pokebloc_Rouge_Plus",
      "path": "src/Assets/nigobot-3000-images/Emojis/Pokébloc/Plus/Rouge_plus.png"
    },
    {
      "group": "Pokébloc",
      "name": "NB_Pokebloc_Rose",
      "path": "src/Assets/nigobot-3000-images/Emojis/Pokébloc/Normal/Rose.png"
    },
    {
      "group": "Pokébloc",
      "name": "NB_Pokebloc_Rose_Plus",
      "path": "src/Assets/nigobot-3000-images/Emojis/Pokébloc/Plus/Rose_plus.png"
    },
    {
      "group": "Pokébloc",
      "name": "NB_Pokebloc_Orange",
      "path": "src/Assets/nigobot-3000-images/Emojis/Pokébloc/Normal/Orange.png"
    },
    {
      "group": "Pokébloc",
      "name": "NB_Pokebloc_Orange_Plus",
      "path": "src/Assets/nigobot-3000-images/Emojis/Pokébloc/Plus/Orange_plus.png"
    },
    {
      "group": "Pokébloc",
      "name": "NB_Pokebloc_Jaune",
      "path": "src/Assets/nigobot-3000-images/Emojis/Pokébloc/Normal/Jaune.png"
    },
    {
      "group": "Pokébloc",
      "name": "NB_Pokebloc_Jaune_Plus",
      "path": "src/Assets/nigobot-3000-images/Emojis/Pokébloc/Plus/Jaune_plus.png"
    },
    {
      "group": "Pokébloc",
      "name": "NB_Pokebloc_Indigo",
      "path": "src/Assets/nigobot-3000-images/Emojis/Pokébloc/Normal/Indigo.png"
    },
    {
      "group": "Pokébloc",
      "name": "NB_Pokebloc_Indigo_Plus",
      "path": "src/Assets/nigobot-3000-images/Emojis/Pokébloc/Plus/Indigo_plus.png"
    },
    {
      "group": "Pokébloc",
      "name": "NB_Pokebloc_Bleu",
      "path": "src/Assets/nigobot-3000-images/Emojis/Pokébloc/Normal/Bleu.png"
    },
    {
      "group": "Pokébloc",
      "name": "NB_Pokebloc_Bleu_Plus",
      "path": "src/Assets/nigobot-3000-images/Emojis/Pokébloc/Plus/Bleu_plus.png"
    },
    {
      "group": "Pokébloc",
      "name": "NB_Pokebloc_Arcenciel",
      "path": "src/Assets/nigobot-3000-images/Emojis/Pokébloc/Normal/Arcenciel.png"
    },
    {
      "group": "Pokébloc",
      "name": "NB_Pokebloc_Arcenciel_Plus",
      "path": "src/Assets/nigobot-3000-images/Emojis/Pokébloc/Plus/Arcenciel_plus.png"
    },
    {
      "group": "Étoile Baie",
      "name": "NB_Berry_Star_1",
      "path": "src/Assets/nigobot-3000-images/Emojis/BerryStar/0.png"
    },
    {
      "group": "Étoile Baie",
      "name": "NB_Berry_Star_2",
      "path": "src/Assets/nigobot-3000-images/Emojis/BerryStar/1.png"
    },
    {
      "group": "Étoile Baie",
      "name": "NB_Berry_Star_3",
      "path": "src/Assets/nigobot-3000-images/Emojis/BerryStar/2.png"
    },
    {
      "group": "Étoile Baie",
      "name": "NB_Berry_Star_4",
      "path": "src/Assets/nigobot-3000-images/Emojis/BerryStar/3.png"
    },
    {
      "group": "Type Icon",
      "name": "NB_Type_Vol",
      "path": "src/Assets/nigobot-3000-images/Emojis/Types/Vol.png"
    },
    {
      "group": "Type Icon",
      "name": "NB_Type_Tenebres",
      "path": "src/Assets/nigobot-3000-images/Emojis/Types/Ténèbres.png"
    },
    {
      "group": "Type Icon",
      "name": "NB_Type_Spectre",
      "path": "src/Assets/nigobot-3000-images/Emojis/Types/Spectre.png"
    },
    {
      "group": "Type Icon",
      "name": "NB_Type_Sol",
      "path": "src/Assets/nigobot-3000-images/Emojis/Types/Sol.png"
    },
    {
      "group": "Type Icon",
      "name": "NB_Type_Roche",
      "path": "src/Assets/nigobot-3000-images/Emojis/Types/Roche.png"
    },
    {
      "group": "Type Icon",
      "name": "NB_Type_Psy",
      "path": "src/Assets/nigobot-3000-images/Emojis/Types/Psy.png"
    },
    {
      "group": "Type Icon",
      "name": "NB_Type_Poison",
      "path": "src/Assets/nigobot-3000-images/Emojis/Types/Poison.png"
    },
    {
      "group": "Type Icon",
      "name": "NB_Type_Normal",
      "path": "src/Assets/nigobot-3000-images/Emojis/Types/Normal.png"
    },
    {
      "group": "Type Icon",
      "name": "NB_Type_Insecte",
      "path": "src/Assets/nigobot-3000-images/Emojis/Types/Insecte.png"
    },
    {
      "group": "Type Icon",
      "name": "NB_Type_Glace",
      "path": "src/Assets/nigobot-3000-images/Emojis/Types/Glace.png"
    },
    {
      "group": "Type Icon",
      "name": "NB_Type_Feu",
      "path": "src/Assets/nigobot-3000-images/Emojis/Types/Feu.png"
    },
    {
      "group": "Type Icon",
      "name": "NB_Type_Fee",
      "path": "src/Assets/nigobot-3000-images/Emojis/Types/Fée.png"
    },
    {
      "group": "Type Icon",
      "name": "NB_Type_Electrik",
      "path": "src/Assets/nigobot-3000-images/Emojis/Types/Électrik.png"
    },
    {
      "group": "Type Icon",
      "name": "NB_Type_Eau",
      "path": "src/Assets/nigobot-3000-images/Emojis/Types/Eau.png"
    },
    {
      "group": "Type Icon",
      "name": "NB_Type_Dragon",
      "path": "src/Assets/nigobot-3000-images/Emojis/Types/Dragon.png"
    },
    {
      "group": "Type Icon",
      "name": "NB_Type_Acier",
      "path": "src/Assets/nigobot-3000-images/Emojis/Types/Acier.png"
    },
    {
      "group": "Type Icon",
      "name": "NB_Type_Combat",
      "path": "src/Assets/nigobot-3000-images/Emojis/Types/Combat.png"
    },
    {
      "group": "Type Icon",
      "name": "NB_Type_Fungus",
      "path": "src/Assets/nigobot-3000-images/Emojis/Types/Fungus.png"
    },
    {
      "group": "Type Icon",
      "name": "NB_Type_Plante",
      "path": "src/Assets/nigobot-3000-images/Emojis/Types/Plante.png"
    },
    {
      "group": "Type Icon",
      "name": "NB_Type_Inconnu",
      "path": "src/Assets/nigobot-3000-images/Emojis/Types/Inconnu.png"
    },
    {
      "group": "Tera Icon",
      "name": "NB_Tera_Vol",
      "path": "src/Assets/nigobot-3000-images/Emojis/TeraTypes/Vol.png"
    },
    {
      "group": "Tera Icon",
      "name": "NB_Tera_Tenebres",
      "path": "src/Assets/nigobot-3000-images/Emojis/TeraTypes/Ténèbres.png"
    },
    {
      "group": "Tera Icon",
      "name": "NB_Tera_Spectre",
      "path": "src/Assets/nigobot-3000-images/Emojis/TeraTypes/Spectre.png"
    },
    {
      "group": "Tera Icon",
      "name": "NB_Tera_Sol",
      "path": "src/Assets/nigobot-3000-images/Emojis/TeraTypes/Sol.png"
    },
    {
      "group": "Tera Icon",
      "name": "NB_Tera_Roche",
      "path": "src/Assets/nigobot-3000-images/Emojis/TeraTypes/Roche.png"
    },
    {
      "group": "Tera Icon",
      "name": "NB_Tera_Psy",
      "path": "src/Assets/nigobot-3000-images/Emojis/TeraTypes/Psy.png"
    },
    {
      "group": "Tera Icon",
      "name": "NB_Tera_Poison",
      "path": "src/Assets/nigobot-3000-images/Emojis/TeraTypes/Poison.png"
    },
    {
      "group": "Tera Icon",
      "name": "NB_Tera_Normal",
      "path": "src/Assets/nigobot-3000-images/Emojis/TeraTypes/Normal.png"
    },
    {
      "group": "Tera Icon",
      "name": "NB_Tera_Insecte",
      "path": "src/Assets/nigobot-3000-images/Emojis/TeraTypes/Insecte.png"
    },
    {
      "group": "Tera Icon",
      "name": "NB_Tera_Glace",
      "path": "src/Assets/nigobot-3000-images/Emojis/TeraTypes/Glace.png"
    },
    {
      "group": "Tera Icon",
      "name": "NB_Tera_Feu",
      "path": "src/Assets/nigobot-3000-images/Emojis/TeraTypes/Feu.png"
    },
    {
      "group": "Tera Icon",
      "name": "NB_Tera_Fee",
      "path": "src/Assets/nigobot-3000-images/Emojis/TeraTypes/Fée.png"
    },
    {
      "group": "Tera Icon",
      "name": "NB_Tera_Electrik",
      "path": "src/Assets/nigobot-3000-images/Emojis/TeraTypes/Électrik.png"
    },
    {
      "group": "Tera Icon",
      "name": "NB_Tera_Eau",
      "path": "src/Assets/nigobot-3000-images/Emojis/TeraTypes/Eau.png"
    },
    {
      "group": "Tera Icon",
      "name": "NB_Tera_Dragon",
      "path": "src/Assets/nigobot-3000-images/Emojis/TeraTypes/Dragon.png"
    },
    {
      "group": "Tera Icon",
      "name": "NB_Tera_Acier",
      "path": "src/Assets/nigobot-3000-images/Emojis/TeraTypes/Acier.png"
    },
    {
      "group": "Tera Icon",
      "name": "NB_Tera_Combat",
      "path": "src/Assets/nigobot-3000-images/Emojis/TeraTypes/Combat.png"
    },
    {
      "group": "Tera Icon",
      "name": "NB_Tera_Fungus",
      "path": "src/Assets/nigobot-3000-images/Emojis/TeraTypes/Fungus.png"
    },
    {
      "group": "Tera Icon",
      "name": "NB_Tera_Plante",
      "path": "src/Assets/nigobot-3000-images/Emojis/TeraTypes/Plante.png"
    },
    {
      "group": "Tera Icon",
      "name": "NB_Tera_Inconnu",
      "path": "src/Assets/nigobot-3000-images/Emojis/TeraTypes/Inconnu.png"
    },
    {
      "group": "Ball",
      "name": "NB_Ball_None",
      "path": "src/Assets/nigobot-3000-images/Emojis/Balls/None.png"
  },
  {
      "group": "Ball",
      "name": "NB_Ball_Master",
      "path": "src/Assets/nigobot-3000-images/Emojis/Balls/Master.png"
  },
  {
      "group": "Ball",
      "name": "NB_Ball_Ultra",
      "path": "src/Assets/nigobot-3000-images/Emojis/Balls/Ultra.png"
  },
  {
      "group": "Ball",
      "name": "NB_Ball_Great",
      "path": "src/Assets/nigobot-3000-images/Emojis/Balls/Great.png"
  },
  {
      "group": "Ball",
      "name": "NB_Ball_Poke",
      "path": "src/Assets/nigobot-3000-images/Emojis/Balls/Poke.png"
  },
  {
      "group": "Ball",
      "name": "NB_Ball_Safari",
      "path": "src/Assets/nigobot-3000-images/Emojis/Balls/Safari.png"
  },
  {
    "group": "Ball",
    "name": "NB_Ball_Evolved_Safari",
    "path": "src/Assets/nigobot-3000-images/Emojis/Balls/Evolved_Safari.png"
  },
  {
      "group": "Ball",
      "name": "NB_Ball_Net",
      "path": "src/Assets/nigobot-3000-images/Emojis/Balls/Net.png"
  },
  {
      "group": "Ball",
      "name": "NB_Ball_Dive",
      "path": "src/Assets/nigobot-3000-images/Emojis/Balls/Dive.png"
  },
  {
      "group": "Ball",
      "name": "NB_Ball_Nest",
      "path": "src/Assets/nigobot-3000-images/Emojis/Balls/Nest.png"
  },
  {
      "group": "Ball",
      "name": "NB_Ball_Repeat",
      "path": "src/Assets/nigobot-3000-images/Emojis/Balls/Repeat.png"
  },
  {
      "group": "Ball",
      "name": "NB_Ball_Timer",
      "path": "src/Assets/nigobot-3000-images/Emojis/Balls/Timer.png"
  },
  {
      "group": "Ball",
      "name": "NB_Ball_Luxury",
      "path": "src/Assets/nigobot-3000-images/Emojis/Balls/Luxury.png"
  },
  {
      "group": "Ball",
      "name": "NB_Ball_Premier",
      "path": "src/Assets/nigobot-3000-images/Emojis/Balls/Premier.png"
  },
  {
      "group": "Ball",
      "name": "NB_Ball_Dusk",
      "path": "src/Assets/nigobot-3000-images/Emojis/Balls/Dusk.png"
  },
  {
      "group": "Ball",
      "name": "NB_Ball_Heal",
      "path": "src/Assets/nigobot-3000-images/Emojis/Balls/Heal.png"
  },
  {
      "group": "Ball",
      "name": "NB_Ball_Quick",
      "path": "src/Assets/nigobot-3000-images/Emojis/Balls/Quick.png"
  },
  {
      "group": "Ball",
      "name": "NB_Ball_Cherish",
      "path": "src/Assets/nigobot-3000-images/Emojis/Balls/Cherish.png"
  },
  {
      "group": "Ball",
      "name": "NB_Ball_Fast",
      "path": "src/Assets/nigobot-3000-images/Emojis/Balls/Fast.png"
  },
  {
      "group": "Ball",
      "name": "NB_Ball_Level",
      "path": "src/Assets/nigobot-3000-images/Emojis/Balls/Level.png"
  },
  {
      "group": "Ball",
      "name": "NB_Ball_Lure",
      "path": "src/Assets/nigobot-3000-images/Emojis/Balls/Lure.png"
  },
  {
      "group": "Ball",
      "name": "NB_Ball_Heavy",
      "path": "src/Assets/nigobot-3000-images/Emojis/Balls/Heavy.png"
  },
  {
      "group": "Ball",
      "name": "NB_Ball_Love",
      "path": "src/Assets/nigobot-3000-images/Emojis/Balls/Love.png"
  },
  {
      "group": "Ball",
      "name": "NB_Ball_Friend",
      "path": "src/Assets/nigobot-3000-images/Emojis/Balls/Friend.png"
  },
  {
      "group": "Ball",
      "name": "NB_Ball_Moon",
      "path": "src/Assets/nigobot-3000-images/Emojis/Balls/Moon.png"
  },
  {
      "group": "Ball",
      "name": "NB_Ball_Sport",
      "path": "src/Assets/nigobot-3000-images/Emojis/Balls/Sport.png"
  },
  {
      "group": "Ball",
      "name": "NB_Ball_Dream",
      "path": "src/Assets/nigobot-3000-images/Emojis/Balls/Dream.png"
  },
  {
      "group": "Ball",
      "name": "NB_Ball_Beast",
      "path": "src/Assets/nigobot-3000-images/Emojis/Balls/Beast.png"
  },
  {
      "group": "Ball",
      "name": "NB_Ball_Strange",
      "path": "src/Assets/nigobot-3000-images/Emojis/Balls/Strange.png"
  },
  {
      "group": "Ball",
      "name": "NB_Ball_Poke_A",
      "path": "src/Assets/nigobot-3000-images/Emojis/Balls/Poke_A.png"
  },
  {
      "group": "Ball",
      "name": "NB_Ball_Great_A",
      "path": "src/Assets/nigobot-3000-images/Emojis/Balls/Super_A.png"
  },
  {
      "group": "Ball",
      "name": "NB_Ball_Ultra_A",
      "path": "src/Assets/nigobot-3000-images/Emojis/Balls/Ultra_A.png"
  },
  {
      "group": "Ball",
      "name": "NB_Ball_Feather",
      "path": "src/Assets/nigobot-3000-images/Emojis/Balls/Feather.png"
  },
  {
      "group": "Ball",
      "name": "NB_Ball_Wing",
      "path": "src/Assets/nigobot-3000-images/Emojis/Balls/Wing.png"
  },
  {
      "group": "Ball",
      "name": "NB_Ball_Jet",
      "path": "src/Assets/nigobot-3000-images/Emojis/Balls/Jet.png"
  },
  {
      "group": "Ball",
      "name": "NB_Ball_Heavy_A",
      "path": "src/Assets/nigobot-3000-images/Emojis/Balls/Heavy_A.png"
  },
  {
      "group": "Ball",
      "name": "NB_Ball_Leaden",
      "path": "src/Assets/nigobot-3000-images/Emojis/Balls/Leaden.png"
  },
  {
      "group": "Ball",
      "name": "NB_Ball_Gigaton",
      "path": "src/Assets/nigobot-3000-images/Emojis/Balls/Gigaton.png"
  },
  {
      "group": "Ball",
      "name": "NB_Ball_Origin",
      "path": "src/Assets/nigobot-3000-images/Emojis/Balls/Origin.png"
  },
  {
      "group": "Ball",
      "name": "NB_Ball_Poke_G",
      "path": "src/Assets/nigobot-3000-images/Emojis/Balls/Poke_G.png"
  },
  {
      "group": "Ball",
      "name": "NB_Ball_Poke_B",
      "path": "src/Assets/nigobot-3000-images/Emojis/Balls/Poke_B.png"
  },
  {
      "group": "Ball",
      "name": "NB_Ball_Poke_Y",
      "path": "src/Assets/nigobot-3000-images/Emojis/Balls/Poke_Y.png"
  },
  {
      "group": "Ball",
      "name": "NB_Ball_Capsule",
      "path": "src/Assets/nigobot-3000-images/Emojis/Balls/Capsule.png"
  },
  {
      "group": "Ball",
      "name": "NB_Ball_Capsule_G",
      "path": "src/Assets/nigobot-3000-images/Emojis/Balls/Capsule_G.png"
  },
  {
      "group": "Ball",
      "name": "NB_Ball_Capsule_B",
      "path": "src/Assets/nigobot-3000-images/Emojis/Balls/Capsule_B.png"
  },
  {
      "group": "Ball",
      "name": "NB_Ball_Capsule_Y",
      "path": "src/Assets/nigobot-3000-images/Emojis/Balls/Capsule_Y.png"
  },
  {
      "group": "Ball",
      "name": "NB_Ball_Sport_G",
      "path": "src/Assets/nigobot-3000-images/Emojis/Balls/Sport_G.png"
  },
  {
      "group": "Ball",
      "name": "NB_Ball_Sport_B",
      "path": "src/Assets/nigobot-3000-images/Emojis/Balls/Sport_B.png"
  },
  {
      "group": "Ball",
      "name": "NB_Ball_Sport_Y",
      "path": "src/Assets/nigobot-3000-images/Emojis/Balls/Sport_Y.png"
  },
  {
      "group": "Ball",
      "name": "NB_Ball_Horde",
      "path": "src/Assets/nigobot-3000-images/Emojis/Balls/Horde.png"
  },
  {
      "group": "Ball",
      "name": "NB_Ball_Aquafari",
      "path": "src/Assets/nigobot-3000-images/Emojis/Balls/Aquafari.png"
  },
  {
      "group": "Ball",
      "name": "NB_Ball_Grand",
      "path": "src/Assets/nigobot-3000-images/Emojis/Balls/Grand.png"
  },
  {
      "group": "Ball",
      "name": "NB_Ball_High",
      "path": "src/Assets/nigobot-3000-images/Emojis/Balls/High.png"
  },
  {
      "group": "Ball",
      "name": "NB_Ball_Prime",
      "path": "src/Assets/nigobot-3000-images/Emojis/Balls/Prime.png"
  },
  {
      "group": "Ball",
      "name": "NB_Ball_Restore",
      "path": "src/Assets/nigobot-3000-images/Emojis/Balls/Restore.png"
  },
  {
      "group": "Ball",
      "name": "NB_Ball_Great_Beast",
      "path": "src/Assets/nigobot-3000-images/Emojis/Balls/Great_Beast.png"
  },
  {
      "group": "Ball",
      "name": "NB_Ball_Ultra_Beast",
      "path": "src/Assets/nigobot-3000-images/Emojis/Balls/Ultra_Beast.png"
  },
  {
      "group": "Ball",
      "name": "NB_Ball_Master_Beast",
      "path": "src/Assets/nigobot-3000-images/Emojis/Balls/Master_Beast.png"
  },
  {
      "group": "Ball",
      "name": "NB_Ball_Sun",
      "path": "src/Assets/nigobot-3000-images/Emojis/Balls/Sun.png"
  },
  {
      "group": "Ball",
      "name": "NB_Ball_Super_BB",
      "path": "src/Assets/nigobot-3000-images/Emojis/Balls/Super_BB.png"
  },
  {
      "group": "Ball",
      "name": "NB_Ball_Blood_Moon",
      "path": "src/Assets/nigobot-3000-images/Emojis/Balls/Blood_Moon.png"
  },
  {
      "group": "RPStatus",
      "name": "NB_RPStatus_Friend",
      "path": "src/Assets/nigobot-3000-images/Emojis/RangerPokémonStatus/0.png"
  },
  {
      "group": "RPStatus",
      "name": "NB_RPStatus_Partner",
      "path": "src/Assets/nigobot-3000-images/Emojis/RangerPokémonStatus/1.png"
  },
  {
      "group": "RPStatus",
      "name": "NB_RPStatus_Wild",
      "path": "src/Assets/nigobot-3000-images/Emojis/RangerPokémonStatus/2.png"
  },
  {
      "group": "RPStatus",
      "name": "NB_RPStatus_Snag",
      "path": "src/Assets/nigobot-3000-images/Emojis/RangerPokémonStatus/3.png"
  },
    {
      "group": "Height/Weight Icon",
      "name": "NB_HW_L",
      "path": "src/Assets/nigobot-3000-images/Emojis/WeightHeight/Cropped/L.png"
    },
    {
      "group": "Height/Weight Icon",
      "name": "NB_HW_N",
      "path": "src/Assets/nigobot-3000-images/Emojis/WeightHeight/Cropped/N.png"
    },
    {
      "group": "Height/Weight Icon",
      "name": "NB_HW_S",
      "path": "src/Assets/nigobot-3000-images/Emojis/WeightHeight/Cropped/S.png"
    },
    {
      "group": "Height/Weight Icon",
      "name": "NB_HW_XL",
      "path": "src/Assets/nigobot-3000-images/Emojis/WeightHeight/Cropped/XL.png"
    },
    {
      "group": "Height/Weight Icon",
      "name": "NB_HW_XS",
      "path": "src/Assets/nigobot-3000-images/Emojis/WeightHeight/Cropped/XS.png"
    },
    {
      "group": "Characteristic Icon",
      "name": "NB_CH_Alpha",
      "path": "src/Assets/nigobot-3000-images/Emojis/Characteristic/Alpha.png"
    },
    {
      "group": "Characteristic Icon",
      "name": "NB_CH_Titan",
      "path": "src/Assets/nigobot-3000-images/Emojis/Characteristic/Titan.png"
    },
    {
      "group": "Characteristic Icon",
      "name": "NB_CH_A_Titan",
      "path": "src/Assets/nigobot-3000-images/Emojis/Characteristic/ATitan.gif"
    },
    {
      "group": "Characteristic Icon",
      "name": "NB_CH_Tera",
      "path": "src/Assets/nigobot-3000-images/Emojis/Characteristic/Tera.png"
    },
    {
      "group": "Characteristic Icon",
      "name": "NB_CH_Shiny",
      "path": "src/Assets/nigobot-3000-images/Emojis/Characteristic/Shiny.png"
    },
    {
      "group": "Characteristic Icon",
      "name": "NB_CH_Antique",
      "path": "src/Assets/nigobot-3000-images/Emojis/Characteristic/Antique.png"
    },
    {
      "group": "Poké Assist Type Icon",
      "name": "NB_PA_Acier",
      "path": "src/Assets/nigobot-3000-images/Emojis/PokéAide/Acier.png"
    },
    {
      "group": "Poké Assist Type Icon",
      "name": "NB_PA_Vol",
      "path": "src/Assets/nigobot-3000-images/Emojis/PokéAide/Vol.png"
    },
    {
      "group": "Poké Assist Type Icon",
      "name": "NB_PA_Tenebres",
      "path": "src/Assets/nigobot-3000-images/Emojis/PokéAide/Ténèbres.png"
    },
    {
      "group": "Poké Assist Type Icon",
      "name": "NB_PA_Spectre",
      "path": "src/Assets/nigobot-3000-images/Emojis/PokéAide/Spectre.png"
    },
    {
      "group": "Poké Assist Type Icon",
      "name": "NB_PA_Sol",
      "path": "src/Assets/nigobot-3000-images/Emojis/PokéAide/Sol.png"
    },
    {
      "group": "Poké Assist Type Icon",
      "name": "NB_PA_Roche",
      "path": "src/Assets/nigobot-3000-images/Emojis/PokéAide/Roche.png"
    },
    {
      "group": "Poké Assist Type Icon",
      "name": "NB_PA_Psy",
      "path": "src/Assets/nigobot-3000-images/Emojis/PokéAide/Psy.png"
    },
    {
      "group": "Poké Assist Type Icon",
      "name": "NB_PA_Poison",
      "path": "src/Assets/nigobot-3000-images/Emojis/PokéAide/Poison.png"
    },
    {
      "group": "Poké Assist Type Icon",
      "name": "NB_PA_Plante",
      "path": "src/Assets/nigobot-3000-images/Emojis/PokéAide/Plante.png"
    },
    {
      "group": "Poké Assist Type Icon",
      "name": "NB_PA_Normal",
      "path": "src/Assets/nigobot-3000-images/Emojis/PokéAide/Normal.png"
    },
    {
      "group": "Poké Assist Type Icon",
      "name": "NB_PA_Insecte",
      "path": "src/Assets/nigobot-3000-images/Emojis/PokéAide/Insecte.png"
    },
    {
      "group": "Poké Assist Type Icon",
      "name": "NB_PA_Glace",
      "path": "src/Assets/nigobot-3000-images/Emojis/PokéAide/Glace.png"
    },
    {
      "group": "Poké Assist Type Icon",
      "name": "NB_PA_Feu",
      "path": "src/Assets/nigobot-3000-images/Emojis/PokéAide/Feu.png"
    },
    {
      "group": "Poké Assist Type Icon",
      "name": "NB_PA_Fee",
      "path": "src/Assets/nigobot-3000-images/Emojis/PokéAide/Fée.png"
    },
    {
      "group": "Poké Assist Type Icon",
      "name": "NB_PA_Electrik",
      "path": "src/Assets/nigobot-3000-images/Emojis/PokéAide/Électrik.png"
    },
    {
      "group": "Poké Assist Type Icon",
      "name": "NB_PA_Eau",
      "path": "src/Assets/nigobot-3000-images/Emojis/PokéAide/Eau.png"
    },
    {
      "group": "Poké Assist Type Icon",
      "name": "NB_PA_Dragon",
      "path": "src/Assets/nigobot-3000-images/Emojis/PokéAide/Dragon.png"
    },
    {
      "group": "Poké Assist Type Icon",
      "name": "NB_PA_Combat",
      "path": "src/Assets/nigobot-3000-images/Emojis/PokéAide/Combat.png"
    },
    {
      "group": "Field Move Icon",
      "name": "NB_FM_Vol1",
      "path": "src/Assets/nigobot-3000-images/Emojis/FieldMove/2_Echelons/Vol/2.png"
    },
    {
      "group": "Field Move Icon",
      "name": "NB_FM_Vol2",
      "path": "src/Assets/nigobot-3000-images/Emojis/FieldMove/2_Echelons/Vol/1.png"
    },
    {
      "group": "Field Move Icon",
      "name": "NB_FM_Teleport1",
      "path": "src/Assets/nigobot-3000-images/Emojis/FieldMove/2_Echelons/Téléport/1.png"
    },
    {
      "group": "Field Move Icon",
      "name": "NB_FM_Teleport2",
      "path": "src/Assets/nigobot-3000-images/Emojis/FieldMove/2_Echelons/Téléport/2.png"
    },
    {
      "group": "Field Move Icon",
      "name": "NB_FM_Survoltage1",
      "path": "src/Assets/nigobot-3000-images/Emojis/FieldMove/4_Echelons/Survoltage/1.png"
    },
    {
      "group": "Field Move Icon",
      "name": "NB_FM_Survoltage2",
      "path": "src/Assets/nigobot-3000-images/Emojis/FieldMove/4_Echelons/Survoltage/2.png"
    },
    {
      "group": "Field Move Icon",
      "name": "NB_FM_Survoltage3",
      "path": "src/Assets/nigobot-3000-images/Emojis/FieldMove/4_Echelons/Survoltage/3.png"
    },
    {
      "group": "Field Move Icon",
      "name": "NB_FM_Survoltage4",
      "path": "src/Assets/nigobot-3000-images/Emojis/FieldMove/4_Echelons/Survoltage/4.png"
    },
    {
      "group": "Field Move Icon",
      "name": "NB_FM_Recharge1",
      "path": "src/Assets/nigobot-3000-images/Emojis/FieldMove/4_Echelons/Recharge/1.png"
    },
    {
      "group": "Field Move Icon",
      "name": "NB_FM_Recharge2",
      "path": "src/Assets/nigobot-3000-images/Emojis/FieldMove/4_Echelons/Recharge/2.png"
    },
    {
      "group": "Field Move Icon",
      "name": "NB_FM_Recharge3",
      "path": "src/Assets/nigobot-3000-images/Emojis/FieldMove/4_Echelons/Recharge/3.png"
    },
    {
      "group": "Field Move Icon",
      "name": "NB_FM_Recharge4",
      "path": "src/Assets/nigobot-3000-images/Emojis/FieldMove/4_Echelons/Recharge/4.png"
    },
    {
      "group": "Field Move Icon",
      "name": "NB_FM_JetDEau1",
      "path": "src/Assets/nigobot-3000-images/Emojis/FieldMove/3_Echelons/JetDEau/1.png"
    },
    {
      "group": "Field Move Icon",
      "name": "NB_FM_JetDEau2",
      "path": "src/Assets/nigobot-3000-images/Emojis/FieldMove/3_Echelons/JetDEau/2.png"
    },
    {
      "group": "Field Move Icon",
      "name": "NB_FM_JetDEau3",
      "path": "src/Assets/nigobot-3000-images/Emojis/FieldMove/3_Echelons/JetDEau/3.png"
    },
    {
      "group": "Field Move Icon",
      "name": "NB_FM_Hate1",
      "path": "src/Assets/nigobot-3000-images/Emojis/FieldMove/2_Echelons/Hate/1.png"
    },
    {
      "group": "Field Move Icon",
      "name": "NB_FM_Hate2",
      "path": "src/Assets/nigobot-3000-images/Emojis/FieldMove/2_Echelons/Hate/2.png"
    },
    {
      "group": "Field Move Icon",
      "name": "NB_FM_Foreuse1",
      "path": "src/Assets/nigobot-3000-images/Emojis/FieldMove/2_Echelons/Foreuse/1.png"
    },
    {
      "group": "Field Move Icon",
      "name": "NB_FM_Foreuse2",
      "path": "src/Assets/nigobot-3000-images/Emojis/FieldMove/2_Echelons/Foreuse/2.png"
    },
    {
      "group": "Field Move Icon",
      "name": "NB_FM_ForcePsy1",
      "path": "src/Assets/nigobot-3000-images/Emojis/FieldMove/3_Echelons/ForcePsy/1.png"
    },
    {
      "group": "Field Move Icon",
      "name": "NB_FM_ForcePsy2",
      "path": "src/Assets/nigobot-3000-images/Emojis/FieldMove/3_Echelons/ForcePsy/2.png"
    },
    {
      "group": "Field Move Icon",
      "name": "NB_FM_ForcePsy3",
      "path": "src/Assets/nigobot-3000-images/Emojis/FieldMove/3_Echelons/ForcePsy/3.png"
    },
    {
      "group": "Field Move Icon",
      "name": "NB_FM_Flash1",
      "path": "src/Assets/nigobot-3000-images/Emojis/FieldMove/2_Echelons/Flash/1.png"
    },
    {
      "group": "Field Move Icon",
      "name": "NB_FM_Flash2",
      "path": "src/Assets/nigobot-3000-images/Emojis/FieldMove/2_Echelons/Flash/2.png"
    },
    {
      "group": "Field Move Icon",
      "name": "NB_FM_Coupe1",
      "path": "src/Assets/nigobot-3000-images/Emojis/FieldMove/4_Echelons/Coupe/1.png"
    },
    {
      "group": "Field Move Icon",
      "name": "NB_FM_Coupe2",
      "path": "src/Assets/nigobot-3000-images/Emojis/FieldMove/4_Echelons/Coupe/2.png"
    },
    {
      "group": "Field Move Icon",
      "name": "NB_FM_Coupe3",
      "path": "src/Assets/nigobot-3000-images/Emojis/FieldMove/4_Echelons/Coupe/3.png"
    },
    {
      "group": "Field Move Icon",
      "name": "NB_FM_Coupe4",
      "path": "src/Assets/nigobot-3000-images/Emojis/FieldMove/4_Echelons/Coupe/4.png"
    },
    {
      "group": "Field Move Icon",
      "name": "NB_FM_Charge1",
      "path": "src/Assets/nigobot-3000-images/Emojis/FieldMove/4_Echelons/Charge/1.png"
    },
    {
      "group": "Field Move Icon",
      "name": "NB_FM_Charge2",
      "path": "src/Assets/nigobot-3000-images/Emojis/FieldMove/4_Echelons/Charge/2.png"
    },
    {
      "group": "Field Move Icon",
      "name": "NB_FM_Charge3",
      "path": "src/Assets/nigobot-3000-images/Emojis/FieldMove/4_Echelons/Charge/3.png"
    },
    {
      "group": "Field Move Icon",
      "name": "NB_FM_Charge4",
      "path": "src/Assets/nigobot-3000-images/Emojis/FieldMove/4_Echelons/Charge/4.png"
    },
    {
      "group": "Field Move Icon",
      "name": "NB_FM_Broyage1",
      "path": "src/Assets/nigobot-3000-images/Emojis/FieldMove/4_Echelons/Broyage/1.png"
    },
    {
      "group": "Field Move Icon",
      "name": "NB_FM_Broyage2",
      "path": "src/Assets/nigobot-3000-images/Emojis/FieldMove/4_Echelons/Broyage/2.png"
    },
    {
      "group": "Field Move Icon",
      "name": "NB_FM_Broyage3",
      "path": "src/Assets/nigobot-3000-images/Emojis/FieldMove/4_Echelons/Broyage/3.png"
    },
    {
      "group": "Field Move Icon",
      "name": "NB_FM_Broyage4",
      "path": "src/Assets/nigobot-3000-images/Emojis/FieldMove/4_Echelons/Broyage/4.png"
    },
    {
      "group": "Field Move Icon",
      "name": "NB_FM_Brulure1",
      "path": "src/Assets/nigobot-3000-images/Emojis/FieldMove/3_Echelons/Brulure/1.png"
    },
    {
      "group": "Field Move Icon",
      "name": "NB_FM_Brulure2",
      "path": "src/Assets/nigobot-3000-images/Emojis/FieldMove/3_Echelons/Brulure/2.png"
    },
    {
      "group": "Field Move Icon",
      "name": "NB_FM_Brulure3",
      "path": "src/Assets/nigobot-3000-images/Emojis/FieldMove/3_Echelons/Brulure/3.png"
    },
    {
      "group": "Field Move Icon",
      "name": "NB_FM_AquaRadeau1",
      "path": "src/Assets/nigobot-3000-images/Emojis/FieldMove/2_Echelons/AquaRadeau/1.png"
    },
    {
      "group": "Field Move Icon",
      "name": "NB_FM_AquaRadeau2",
      "path": "src/Assets/nigobot-3000-images/Emojis/FieldMove/2_Echelons/AquaRadeau/2.png"
    },
    {
      "group": "Field Move Icon",
      "name": "NB_FM_AntiBrume1",
      "path": "src/Assets/nigobot-3000-images/Emojis/FieldMove/2_Echelon/AntiBrume/1.png"
    },
    {
      "group": "Field Move Icon",
      "name": "NB_FM_AntiBrume2",
      "path": "src/Assets/nigobot-3000-images/Emojis/FieldMove/2_Echelon/AntiBrume/2.png"
    },
    {
      "group": "Field Move Icon",
      "name": "NB_FM_Traverse",
      "path": "src/Assets/nigobot-3000-images/Emojis/FieldMove/1_Echelon/Traverse.png"
    },
    {
      "group": "Field Move Icon",
      "name": "NB_FM_SousMarin",
      "path": "src/Assets/nigobot-3000-images/Emojis/FieldMove/1_Echelon/SousMarin.png"
    },
    {
      "group": "Field Move Icon",
      "name": "NB_FM_MagmaRadeau",
      "path": "src/Assets/nigobot-3000-images/Emojis/FieldMove/1_Echelon/MagmaRadeau.png"
    },
    {
      "group": "Field Move Icon",
      "name": "NB_FM_Ensablement",
      "path": "src/Assets/nigobot-3000-images/Emojis/FieldMove/1_Echelon/Ensablement.png"
    },
    {
      "group": "Field Move Icon",
      "name": "NB_FM_DansePluie",
      "path": "src/Assets/nigobot-3000-images/Emojis/FieldMove/1_Echelon/DansePluie.png"
    },
    {
      "group": "Field Move Icon",
      "name": "NB_FM_Depollution",
      "path": "src/Assets/nigobot-3000-images/Emojis/FieldMove/1_Echelon/Dépollution.png"
    },
    {
      "group": "Field Move Icon",
      "name": "NB_FM_Vigie",
      "path": "src/Assets/nigobot-3000-images/Emojis/FieldMove/1_Echelon/Vigie.png"
    },
    {
      "group": "Field Move Icon",
      "name": "NB_FM_Aucune",
      "path": "src/Assets/nigobot-3000-images/Emojis/FieldMove/1_Echelon/Aucune.png"
    },
    {
      "group": "Bot part",
      "name": "NB_Part_Scrolls",
      "path": "src/Assets/nigobot-3000-images/Emojis/PartIcon/Scrolls.png"
    },
    {
      "group": "Bot part",
      "name": "NB_Part_Tools",
      "path": "src/Assets/nigobot-3000-images/Emojis/PartIcon/Tools.png"
    },
    {
      "group": "Bot part",
      "name": "NB_Part_Sprout",
      "path": "src/Assets/nigobot-3000-images/Emojis/PartIcon/Sprout.png"
    },
    {
      "group": "Bot part",
      "name": "NB_Part_Pokemon",
      "path": "src/Assets/nigobot-3000-images/Emojis/PartIcon/Pokemon.png"
    },
    {
      "group": "Bot part",
      "name": "NB_Part_Player",
      "path": "src/Assets/nigobot-3000-images/Emojis/PartIcon/Player.png"
    },
    {
      "group": "Bot part",
      "name": "NB_Part_Money",
      "path": "src/Assets/nigobot-3000-images/Emojis/PartIcon/Money.png"
    },
    {
      "group": "Bot part",
      "name": "NB_Part_Help",
      "path": "src/Assets/nigobot-3000-images/Emojis/PartIcon/Help.png"
    },
    {
      "group": "Bot part",
      "name": "NB_Part_Fun",
      "path": "src/Assets/nigobot-3000-images/Emojis/PartIcon/Fun.png"
    },
    {
      "group": "Bot part",
      "name": "NB_Part_Fruit",
      "path": "src/Assets/nigobot-3000-images/Emojis/PartIcon/Fruit.png"
    },
    {
      "group": "Bot part",
      "name": "NB_Part_Food",
      "path": "src/Assets/nigobot-3000-images/Emojis/PartIcon/Food.png"
    },
    {
      "group": "Bot part",
      "name": "NB_Part_Egg",
      "path": "src/Assets/nigobot-3000-images/Emojis/PartIcon/Egg.png"
    },
    {
      "group": "Bot part",
      "name": "NB_Part_Dice",
      "path": "src/Assets/nigobot-3000-images/Emojis/PartIcon/Dice.png"
    },
    {
      "group": "Bot part",
      "name": "NB_Part_Cog",
      "path": "src/Assets/nigobot-3000-images/Emojis/PartIcon/Cog.png"
    },
    {
      "group": "Bot part",
      "name": "NB_Part_Cauldron",
      "path": "src/Assets/nigobot-3000-images/Emojis/PartIcon/Cauldron.png"
    },
    {
      "group": "Bot part",
      "name": "NB_Part_Book",
      "path": "src/Assets/nigobot-3000-images/Emojis/PartIcon/Book.png"
    },
    {
      "group": "Bot part",
      "name": "NB_Part_Bag",
      "path": "src/Assets/nigobot-3000-images/Emojis/PartIcon/Bag.png"
    },
    {
      "group": "Bot part",
      "name": "NB_Part_Earth",
      "path": "src/Assets/nigobot-3000-images/Emojis/PartIcon/Earth.png"
    },
    {
      "group": "Bot part",
      "name": "NB_Part_Camera",
      "path": "src/Assets/nigobot-3000-images/Emojis/PartIcon/Camera.png"
    },
    {
      "group": "Bot part",
      "name": "NB_Part_Calendar",
      "path": "src/Assets/nigobot-3000-images/Emojis/PartIcon/Calendar.png"
    },
    {
      "group": "Bot part",
      "name": "NB_Part_Battle",
      "path": "src/Assets/nigobot-3000-images/Emojis/PartIcon/Battle.png"
    },
    {
      "group": "Criticality",
      "name": "NB_Criticality_Level_5",
      "path": "src/Assets/nigobot-3000-images/Emojis/Criticality/Chevron_up_2.png"
    },
    {
      "group": "Criticality",
      "name": "NB_Criticality_Level_4",
      "path": "src/Assets/nigobot-3000-images/Emojis/Criticality/Chevron_up.png"
    },
    {
      "group": "Criticality",
      "name": "NB_Criticality_Level_3",
      "path": "src/Assets/nigobot-3000-images/Emojis/Criticality/Equal.png"
    },
    {
      "group": "Criticality",
      "name": "NB_Criticality_Level_2",
      "path": "src/Assets/nigobot-3000-images/Emojis/Criticality/Chevron_down.png"
    },
    {
      "group": "Criticality",
      "name": "NB_Criticality_Level_1",
      "path": "src/Assets/nigobot-3000-images/Emojis/Criticality/Chevron_down_2.png"
    },
    {
      "group": "Calendar",
      "name": "NB_Calendar_0",
      "path": "src/Assets/nigobot-3000-images/Emojis/Calendar/0.png"
    },
    {
      "group": "Calendar",
      "name": "NB_Calendar_1",
      "path": "src/Assets/nigobot-3000-images/Emojis/Calendar/1.png"
    },
    {
      "group": "Calendar",
      "name": "NB_Calendar_2",
      "path": "src/Assets/nigobot-3000-images/Emojis/Calendar/2.png"
    },
    {
      "group": "Calendar",
      "name": "NB_Calendar_3",
      "path": "src/Assets/nigobot-3000-images/Emojis/Calendar/3.png"
    },
    {
      "group": "Calendar",
      "name": "NB_Calendar_4",
      "path": "src/Assets/nigobot-3000-images/Emojis/Calendar/4.png"
    },
    {
      "group": "Calendar",
      "name": "NB_Calendar_5",
      "path": "src/Assets/nigobot-3000-images/Emojis/Calendar/5.png"
    },
    {
      "group": "Calendar",
      "name": "NB_Calendar_6",
      "path": "src/Assets/nigobot-3000-images/Emojis/Calendar/6.png"
    },
    {
      "group": "Calendar",
      "name": "NB_Calendar_7",
      "path": "src/Assets/nigobot-3000-images/Emojis/Calendar/7.png"
    },
    {
      "group": "Calendar",
      "name": "NB_Calendar_8",
      "path": "src/Assets/nigobot-3000-images/Emojis/Calendar/8.png"
    },
    {
      "group": "Bot part",
      "name": "NB_Part_Pokeball",
      "path": "src/Assets/nigobot-3000-images/Emojis/PartIcon/Pokeball.png"
    },
    {
      "group": "Bot part",
      "name": "NB_Part_Item",
      "path": "src/Assets/nigobot-3000-images/Emojis/PartIcon/Item.png"
    },
    {
      "group": "Pokemon Favorite Food",
      "name": "NB_Food_Leaf",
      "path": "src/Assets/nigobot-3000-images/Emojis/PokémonFood/Feuille.png"
    },
    {
      "group": "Pokemon Favorite Food",
      "name": "NB_Food_Mushroom",
      "path": "src/Assets/nigobot-3000-images/Emojis/PokémonFood/Champi.png"
    },
    {
      "group": "Pokemon Favorite Food",
      "name": "NB_Food_Beans",
      "path": "src/Assets/nigobot-3000-images/Emojis/PokémonFood/Fève.png"
    },
    {
      "group": "Pokemon Favorite Food",
      "name": "NB_Food_Honey",
      "path": "src/Assets/nigobot-3000-images/Emojis/PokémonFood/Miel.png"
    },
    {
      "group": "Pokemon Favorite Food",
      "name": "NB_Food_Rice",
      "path": "src/Assets/nigobot-3000-images/Emojis/PokémonFood/Riz.png"
    },
    {
      "group": "Pokemon Favorite Food",
      "name": "NB_Food_Salt",
      "path": "src/Assets/nigobot-3000-images/Emojis/PokémonFood/Sel.png"
    },
    {
      "group": "Pokemon Favorite Food",
      "name": "NB_Food_CD",
      "path": "src/Assets/nigobot-3000-images/Emojis/PokémonFood/CD.png"
    },
    {
      "group": "Pokemon Favorite Food",
      "name": "NB_Food_Apicorn",
      "path": "src/Assets/nigobot-3000-images/Emojis/PokémonFood/Noigrume.png"
    },
    {
      "group": "Pokemon Diagram Sex",
      "name": "NB_Sex_M2",
      "path": "src/Assets/nigobot-3000-images/Emojis/PokemonSexDiagram/-2.png"
    },
    {
      "group": "Pokemon Diagram Sex",
      "name": "NB_Sex_M1",
      "path": "src/Assets/nigobot-3000-images/Emojis/PokemonSexDiagram/-1.png"
    },
    {
      "group": "Pokemon Diagram Sex",
      "name": "NB_Sex_0",
      "path": "src/Assets/nigobot-3000-images/Emojis/PokemonSexDiagram/0.png"
    },
    {
      "group": "Pokemon Diagram Sex",
      "name": "NB_Sex_1",
      "path": "src/Assets/nigobot-3000-images/Emojis/PokemonSexDiagram/1.png"
    },
    {
      "group": "Pokemon Diagram Sex",
      "name": "NB_Sex_2",
      "path": "src/Assets/nigobot-3000-images/Emojis/PokemonSexDiagram/2.png"
    },
    {
      "group": "Pokemon Diagram Sex",
      "name": "NB_Sex_4",
      "path": "src/Assets/nigobot-3000-images/Emojis/PokemonSexDiagram/4.png"
    },
    {
      "group": "Pokemon Diagram Sex",
      "name": "NB_Sex_6",
      "path": "src/Assets/nigobot-3000-images/Emojis/PokemonSexDiagram/6.png"
    },
    {
      "group": "Pokemon Diagram Sex",
      "name": "NB_Sex_7",
      "path": "src/Assets/nigobot-3000-images/Emojis/PokemonSexDiagram/7.png"
    },
    {
      "group": "Pokemon Diagram Sex",
      "name": "NB_Sex_8",
      "path": "src/Assets/nigobot-3000-images/Emojis/PokemonSexDiagram/8.png"
    },
    {
      "group": "Pokemon Dangerousness",
      "name": "NB_Dangerousness_0",
      "path": "src/Assets/nigobot-3000-images/Emojis/PokémonDangerousness/0.png"
    },
    {
      "group": "Pokemon Dangerousness",
      "name": "NB_Dangerousness_1",
      "path": "src/Assets/nigobot-3000-images/Emojis/PokémonDangerousness/1.png"
    },
    {
      "group": "Pokemon Dangerousness",
      "name": "NB_Dangerousness_2",
      "path": "src/Assets/nigobot-3000-images/Emojis/PokémonDangerousness/2.png"
    },
    {
      "group": "Pokemon Dangerousness",
      "name": "NB_Dangerousness_3",
      "path": "src/Assets/nigobot-3000-images/Emojis/PokémonDangerousness/3.png"
    },
    {
      "group": "Pokemon Dangerousness",
      "name": "NB_Dangerousness_4",
      "path": "src/Assets/nigobot-3000-images/Emojis/PokémonDangerousness/4.png"
    },
    {
      "group": "Pokemon Dangerousness",
      "name": "NB_Dangerousness_5",
      "path": "src/Assets/nigobot-3000-images/Emojis/PokémonDangerousness/5.png"
    },
    {
      "group": "Pokemon Dangerousness",
      "name": "NB_Dangerousness_6",
      "path": "src/Assets/nigobot-3000-images/Emojis/PokémonDangerousness/6.png"
    },
    {
      "group": "Pokemon Dangerousness",
      "name": "NB_Dangerousness_7",
      "path": "src/Assets/nigobot-3000-images/Emojis/PokémonDangerousness/7.png"
    },
    {
      "group": "Pokemon Dangerousness",
      "name": "NB_Dangerousness_8",
      "path": "src/Assets/nigobot-3000-images/Emojis/PokémonDangerousness/8.png"
    },
    {
      "group": "Buddy Found Item",
      "name": "NB_BFI_berry",
      "path": "src/Assets/nigobot-3000-images/Emojis/BuddyFoundItem/berry.png"
    },
    {
      "group": "Buddy Found Item",
      "name": "NB_BFI_bouquet",
      "path": "src/Assets/nigobot-3000-images/Emojis/BuddyFoundItem/bouquet.png"
    },
    {
      "group": "Buddy Found Item",
      "name": "NB_BFI_crystal",
      "path": "src/Assets/nigobot-3000-images/Emojis/BuddyFoundItem/crystal.png"
    },
    {
      "group": "Buddy Found Item",
      "name": "NB_BFI_evolutionItem",
      "path": "src/Assets/nigobot-3000-images/Emojis/BuddyFoundItem/evolutionItem.png"
    },
    {
      "group": "Buddy Found Item",
      "name": "NB_BFI_evolutionStone",
      "path": "src/Assets/nigobot-3000-images/Emojis/BuddyFoundItem/evolutionStone.png"
    },
    {
      "group": "Buddy Found Item",
      "name": "NB_BFI_feather",
      "path": "src/Assets/nigobot-3000-images/Emojis/BuddyFoundItem/feather.png"
    },
    {
      "group": "Buddy Found Item",
      "name": "NB_BFI_flower",
      "path": "src/Assets/nigobot-3000-images/Emojis/BuddyFoundItem/flower.png"
    },
    {
      "group": "Buddy Found Item",
      "name": "NB_BFI_food",
      "path": "src/Assets/nigobot-3000-images/Emojis/BuddyFoundItem/food.png"
    },
    {
      "group": "Buddy Found Item",
      "name": "NB_BFI_fossil",
      "path": "src/Assets/nigobot-3000-images/Emojis/BuddyFoundItem/fossil.png"
    },
    {
      "group": "Buddy Found Item",
      "name": "NB_BFI_gem",
      "path": "src/Assets/nigobot-3000-images/Emojis/BuddyFoundItem/gem.png"
    },
    {
      "group": "Buddy Found Item",
      "name": "NB_BFI_goldLeaf",
      "path": "src/Assets/nigobot-3000-images/Emojis/BuddyFoundItem/goldLeaf.png"
    },
    {
      "group": "Buddy Found Item",
      "name": "NB_BFI_silverLeaf",
      "path": "src/Assets/nigobot-3000-images/Emojis/BuddyFoundItem/silverLeaf.png"
    },
    {
      "group": "Buddy Found Item",
      "name": "NB_BFI_leaf",
      "path": "src/Assets/nigobot-3000-images/Emojis/BuddyFoundItem/leaf.png"
    },
    {
      "group": "Buddy Found Item",
      "name": "NB_BFI_money",
      "path": "src/Assets/nigobot-3000-images/Emojis/BuddyFoundItem/money.png"
    },
    {
      "group": "Buddy Found Item",
      "name": "NB_BFI_mushroom",
      "path": "src/Assets/nigobot-3000-images/Emojis/BuddyFoundItem/mushroom.png"
    },
    {
      "group": "Buddy Found Item",
      "name": "NB_BFI_plate",
      "path": "src/Assets/nigobot-3000-images/Emojis/BuddyFoundItem/plate.png"
    },
    {
      "group": "Buddy Found Item",
      "name": "NB_BFI_rock",
      "path": "src/Assets/nigobot-3000-images/Emojis/BuddyFoundItem/rock.png"
    },
    {
      "group": "Buddy Found Item",
      "name": "NB_BFI_seachell",
      "path": "src/Assets/nigobot-3000-images/Emojis/BuddyFoundItem/seachell.png"
    },
    {
      "group": "Buddy Found Item",
      "name": "NB_BFI_shard",
      "path": "src/Assets/nigobot-3000-images/Emojis/BuddyFoundItem/shard.png"
    },
    {
      "group": "Buddy Found Item",
      "name": "NB_BFI_sphere",
      "path": "src/Assets/nigobot-3000-images/Emojis/BuddyFoundItem/sphere.png"
    },
    {
      "group": "Buddy Found Item",
      "name": "NB_BFI_trash",
      "path": "src/Assets/nigobot-3000-images/Emojis/BuddyFoundItem/trash.png"
    },
    {
      "group": "Buddy Found Item",
      "name": "NB_BFI_weatherStone",
      "path": "src/Assets/nigobot-3000-images/Emojis/BuddyFoundItem/weatherStone.png"
    },
    {
      "group": "Buddy Found Item",
      "name": "NB_BFI_unknown",
      "path": "src/Assets/nigobot-3000-images/Emojis/BuddyFoundItem/unknown.png"
    },
    {
      "group": "Buddy Found Item",
      "name": "NB_BFI_fruit",
      "path": "src/Assets/nigobot-3000-images/Emojis/BuddyFoundItem/fruit.png"
    },
    {
      "group": "Buddy Found Item",
      "name": "NB_BFI_apricorn",
      "path": "src/Assets/nigobot-3000-images/Emojis/BuddyFoundItem/apricorn.png"
    },
    {
      "group": "Buddy Found Item Rarity",
      "name": "NB_BFIR_0",
      "path": "src/Assets/nigobot-3000-images/Emojis/BuddyFoundItemRarity/0.png"
    },
    {
      "group": "Buddy Found Item Rarity",
      "name": "NB_BFIR_1",
      "path": "src/Assets/nigobot-3000-images/Emojis/BuddyFoundItemRarity/1.png"
    },
    {
      "group": "Buddy Found Item Rarity",
      "name": "NB_BFIR_2",
      "path": "src/Assets/nigobot-3000-images/Emojis/BuddyFoundItemRarity/2.png"
    },
    {
      "group": "Buddy Found Item Rarity",
      "name": "NB_BFIR_3",
      "path": "src/Assets/nigobot-3000-images/Emojis/BuddyFoundItemRarity/3.png"
    },
    {
      "group": "Buddy Found Item Rarity",
      "name": "NB_BFIR_4",
      "path": "src/Assets/nigobot-3000-images/Emojis/BuddyFoundItemRarity/4.png"
    },
    {
      "group": "Buddy Found Item Rarity",
      "name": "NB_BFIR_5",
      "path": "src/Assets/nigobot-3000-images/Emojis/BuddyFoundItemRarity/5.png"
    }
  ]
}