{
  "author": {
    "help": "Aide générale du Nigobot",
    "berry": "Partie Baie",
    "biome": "Partie Biome",
    "craft": "Partie Fabrication",
    "dice": "Partie Dé",
    "player": "Partie Joueur",
    "pokémon": "Partie Pokémon",
    "fun": "Partie Fun",
    "lore": "Partie Lore",
    "item": "Partie Objet",
    "money": "Partie Argent",
    "inventory": "Partie Inventaire",
    "system": "Système",
    "logs": "Logs",
    "calendar": "Partie Calendrier",
    "trainers": "Partie Dresseurs",
    "alert": "Alerte rouge!",
    "error": "Erreur"
  },
  "priceRatesRoutine": {
    "title": "Changement des prix!",
    "sellName": "Prix de vente",
    "buyName": "Prix d'achat",
    "auctionName": "Prix d'achat et de revente lors d'enchères",
    "lignRates": "Le prix {SELLBUY} est plus {DOWNHIGH} que d'habitude! {OBJECTNAME} {ACTION} pour {PRICEWITHRATE} par rapport à {NORMALPRICE}!",
    "lignRatesNormal": "Le prix {SELLBUY} est normal."
  },
  "pokémonFoundableItemRoutine": {
    "titleSingle": ", votre Pokémon a trouvé un objet!",
    "titleMultiple": ", vos Pokémon ont trouvé des objets!",
    "ligne": "__**{POKÉMON}**__ a trouvé **{QUANTITY}** objet{PLURAL} \"**{OBJET}**\"{EMOJIITEM}! C'est un objet {RARITY} {EMOJIRARITY}!\n"
  },
  "alert": {
    "privateMessage": "Un message vous a été envoyé en privé!",
    "privateMessages": "Plusieurs messages ont été envoyés en privé!"
  },
  "inventory": {
    "foundItem": "Objets trouvés",
    "noItemFound": "Vos Pokémon n'ont jamais rien trouvé :c"
  },
  "item": {
    "listSubCategories": "Liste des sous catégories de la catégorie ",
    "listCategories": "Liste des catégories d'objets",
    "youFoundItem": "Vous avez trouvé un objet!",
    "missingIdPlayer": "Indiquez un ID de joueur",
    "lignFoundItem": "Vous avez trouvé l'objet \"**{OBJET}**\"{EMOJI}! C'est un objet {RARITY}!\n",
    "titleItemDefaultTemplate": "Détails de catégories d'objets",
    "itemViewTemplate": {
      "description": "Description",
      "subCategory": "Sous Catégorie",
      "craftable": "Fabricable?",
      "illegal": "Illégal?",
      "recipeX": "Recette {X}",
      "recipeLevel": "Niveau: {X}\n",
      "recipeComponents": "Composants: \n",
      "unavailableName": "Indisponibilité",
      "unavailableValue": "Cet objet n'est pas trouvables dans des magasins conventionnels.",
      "priceName": "Prix",
      "priceAlwaysAvailableValue": "Cet objet est toujours disponible en boutique et son prix est fixe.",
      "priceValue":  "En fonction des jours, le prix de l'objet peux varier dans les boutiques Pokémon en achat comme en revente.",
      "prices": {
        "buyBaseDown": "Prix d'achat le plus bas",
        "buyBase": "Prix d'achat de base",
        "buy": "Prix d'achat",
        "buyBaseUp": "Prix d'achat le plus haut",
        "sellBaseDown": "Prix de vente le plus bas",
        "sellBase": "Prix de vente de base",
        "sell": "Prix de vente",
        "sellBaseUp": "Prix de vente le plus haut",
        "auctionName": "Enchères",
        "auctionValue": "Lors des enchères, les objets peuvent être acheté et vendu entre les prix suivant:",
        "auctionDown": "Prix le plus bas",
        "auctionHigh": "Prix le plus haut"
      },
      "foundableItem": {
        "infoName": "Informations objet trouvé",
        "infoValue": "Cet objet peut être trouvé par vous voir vos Pokémon lors de vos aventures.",
        "location": "Localisation",
        "foundableByPartner": "Trouvable par vos Pokémon?",
        "foundableByPokémon": "Cet objet peut être trouvé par vos Pokémon!",
        "notFoundableByPokémon": "Cet objet ne peut pas être trouvé par vos Pokémon.",
        "foundableItemLocationBase": "L'objet est trouvable dans le(s) biome(s) suivant(s):",
        "foundableItemLocationRarity": "\n- De façon **{RARITY}** {EMOJI} dans les catégories de biomes : ",
        "foundableItemLocationSpecial": "\n- C'est un objet spécial {EMOJI} que peut trouver vos Pokémon! Plus vous passerez du temps ensemble plus il en trouvera de sorte!"
      }
    }
  },
  "lore": {
    "title": "Lien vers les ressources de Lore",
    "link": "__**Lien vers le Google Drive :**__\n",
    "description": "\n\nMettez le à jour avec les informations que vous apprennez dans le bon document ou créer le.\nVous pouvez y ajouter les ressources images qu'il vous semble bon de conserver pour la suite.Pour des soucis de simplification, entrez toutes les informations qu'ils vous sont données, quelles proviennent d'informations privées ou de dires publics. Les joueurs/euses entre eux et elles **n'ont pas le droit de chercher le pourquoi certains personnages savent certaines choses**.\nIndiquez clairement, à l'aide de couleurs si il le faut, qui sait quoi et ne surlignez pas dans les informations que savent les autres.",
    "fields": {
      "S1Resume": "__Résumés de séances de la saison 1:__",
      "Draconids": "__Informations sur les Draconids:__",
      "Darkrai": "__Informations sur les Darkrai:__",
      "Teams": "__Informations sur vos ennemis:__",
      "Blue": "__Informations sur le monde A0:__",
      "S2NPC": "__Informations sur les personnages non joueurs de la saison 2:__",
      "S3NPC": "__Informations sur les personnages non joueurs de la saison 3:__"
    }
  },
  "error": {
    "errorTitle": "Erreur",
    "errorUnknown": "Erreur inconnue.",
    "notEnoughMoney": "Pas assez d'argent!",
    "userNotInitialize": "Utilisateur non initialisé.",
    "userNotPlayer": "Utilisateur non joueur.",
    "userMoneyNotInitialize": "Monnaie de l'utilisateur non initialisée.",
    "notAdminUser": "Vous n'êtes pas admin! Allez vous en! >:c",
    "tooManyArgumentsOrBadSyntax": "Trop d'arguments ou mauvaise syntaxe !",
    "invalidOrBadArgument": "Trop peu d'arguments ou mauvaise syntaxe !",
    "invalidDayOrId": "Jour ou Id d'évènement invalide",
    "invalidDay": "Jour invalide",
    "errorModuleNotDiscovered": "Le module demandé n'a pas encore été découvert...",
    "errorModuleNotFound": "Le module demandé est invalide, n'existe pas ou n'a pas été découvert.",
    "errorBerryNotFound": "La Baie demandée est invalide ou elle n'existe pas",
    "errorItemNotFound": "L'objet demandé est invalide ou n'existe pas",
    "errorInvalidArguments": "Les arguments ne sont pas valides.",
    "errorPokemonBiomeGeneration": "Impossible de générer un Pokémon pour ce biome avec cette rareté là.",
    "errorChangeTypeDate": "Impossible de changer le type de jour du jour donné.",
    "errorSetTodayDayInvalid": "Le changement de jour est impossible avec la date renseignée, elle est avant la date la plus récente renseignée par le passé.",
    "errorSetTodayDayExist": "Le changement de jour est impossible avec la date renseignée, le jour a déjà été renseigné.",
    "errorSetToday": "Le changement de jour est impossible avec la date renseignée, il y a un problème inconnu.",
    "emptyCalendar": "Les données du calendrier sont vides.",
    "emptyCalendarForSelectedPeriod": "Les données du calendrier sont vides piur la période sélectionnée.",
    "dayNoEvent": "Le jour séléctionné n'a pas d'évènement.",
    "addEventDescTooManyChar": "La description de l'évènement fait plus de 1000 caractères, réduisez la et réessayez.",
    "addEventTitleTooManyChar": "Le titre de l'évènement fait plus de 250 caractères, réduisez le et réessayez.",
    "addEventDescTitleTooManyChar": "Le titre de l'évènement ainsi que la description font plus de 250 caractères pour le titre et plus de 1000 caractères pour la description, réduisez les et réessayez.",
    "errorGenerateTrainer":
    {
      "fieldTitle": "Une erreur est survenu lors de la génération d'un Dresseur",
      "fieldContent": "Assurez-vous que le type de Dresseur/le biome que vous avez entré est bien valide."
    }
  },
  "calendar": {
    "iconCalendarExplanation": "Prenez attention à l'icône en haut à droite, elle indique le type de jour.\n- {EMOJI_NULL} pour un jour non renseigné\n- {EMOJI_SESSION} pour un jour de séance\n- {EMOJI_EVENT} pour un jour de séance évènement/bonus\n- {EMOJI_OFFSESSION} pour un jour de inter-séance\n- {EMOJI_OFFSAISON} pour un jour de inter-saison\n- {EMOJI_OFFSESSIONEVENT} pour un jour de d'inter-séance et d'évènement\n- {EMOJI_SESSIONEVENT} pour un jour de séance et d'évènement\n- {EMOJI_SESSIONOFFSESSION} pour un jour de séance et d'inter-séance\n- {EMOJI_TODO} pour un jour à remplir",
    "iconCalendarError": "Je crois que le type de jour a un KW4K...",
    "iconCalendarDescription": {
      "null": "C'est un jour non renseigné !",
      "session": "C'est un jour de séance !",
      "offSession": "C'est un jour d'inter-séance !",
      "offSeason": "C'est un jour d'inter-saison !",
      "event": "C'est un jour de séance d'évènement/bonus !",
      "offSessionEvent": "C'est un jour de d'inter-séance et d'évènement!",
      "sessionEvent": "C'est un jour de séance et d'évènement!",
      "sessionOffSession": "C'est un jour de séance et d'inter-séance!",
      "todo": "C'est un jour à compléter!"
    },
    "modifyOrderPreview": {
      "title": "Évènement(s) du {DATE}:\n",
      "nameField": "Informations",
      "valueField": "Changer les ID de la commande ci-dessous de en fonction du nouvel l'ordre voulu.\nAttention à ne pas mettre des ID n'existant pas et à ne pas toucher les indicateurs de paramètres.",
      "dateLine": "{ORDER} - ID:{ID} - {EVENTTITLE} {EMOJITYPE}\n",
      "eventLine": "{ORDER} - ID:{ID} - {EVENTTITLE} {EMOJITYPE}\n"
    },
    "viewMonthDays": {
      "title": "Jours renseignés du mois de {MONTH} de l'année {YEAR}:\n",
      "enteredDayLine": "- {DAY} {EMOJITYPE}: {EVENTNUMBER} évènement(s) renseigné(s).\n",
      "notEnteredDayLine": "- {DAY} {EMOJITYPE}: Jour non renseigné.\n"
    },
    "changeTypeDateTemplate": {
      "changeDate": "Changement du type de jour pour le "
    },
    "TODODaysBlankTemplate": {
      "line": "{NBTODODAYS} jours ont été rajoutés dans le calendrier et sont à faire!"
    },
    "addEventLogTemplate": {
      "title": "Ajout d'évènement pour le {DATE}"
    },
    "setTodayCalendarTemplate": {
      "actualDate": "Jour Actuel: ",
      "fieldNewName": "C'est une nouvelle journée qui commence !",
      "fieldOldName": "C'est une nouvelle journée qui commence ?",
      "fieldValue": "KW4KORI-KW4K !"
    },
    "addPeriodOutputTemplate": {
      "title": "Ajout de la période du {START} au {END}",
      "descriptionNormal": "Dans la période sélectionnée {DAYSAVED} jours ont été enregistrés.",
      "decriptionNoDaySaved": "La période selectionnée existe déjà. Veuiller modifier les jours séparément.",
      "descriptionDayNotSaved": "\n{DAYNOTSAVED} jours existaient déjà dans les données et n'ont pas été sauvegardés."
    },
    "addEventPeriodOutputTemplate": {
      "title": "Ajout d'évènement durant la période du {START} au {END}",
      "description": "Dans la période sélectionnée, l'évènement a été enregistré dans {DAYSAVED} jours."
    },
    "addEventPeriodLogTemplate": {
      "title": "Ajout d'évènement durant la période du {START} au {END}",
      "fieldLevel": "Criticité:",
      "fieldTitle": "Titre:",
      "fieldDescription": "Description:"
    },
    "addPeriodLogTemplate": {
      "title": "Ajout de la période du {START} au {END}",
      "fieldDayType": "Type de jour:",
      "fieldLevel": "Criticité:",
      "fieldTitle": "Titre:",
      "fieldDescription": "Description:"
    },
    "modifyDayTemplate": {
      "title": "Modification d'évènement",
      "description": "Modification de l'évènement {EVENTID} du {DATE}.",
      "fieldLevel": "Criticité:",
      "fieldTitle": "Titre:",
      "fieldDescription": "Description:"
    },
    "dayCalendarTemplate": {
      "eventTitleLine": "{EMOJI} - {TITLE} - ID:{ID}",
      "fieldName": "Évènements",
      "fieldValue": "KW4K ? Je n'ai rien trouvé pour cette date..."
    }
  },
  "craft": {
    "title": "Fabrication",
    "invalidThrowDescription": "Vous n'arrivez pas à créer l'objet que vous imaginiez...",
    "invalidRecipeDescription": "Il y a comme un KW4K! Cette recette ne donne rien...",
    "craftCreationModuleResultTemplate": {
      "title": "Fabrication d'objets",
      "youHaveCreated": "Vous avez fabriqué: ",
      "anElectronicObjet": "C'est un module pour outil technique!",
      "description": "Description",
      "components": "Composants",
      "group": "Groupe de module",
      "illegal": "Illégal?",
      "level": "Niveau",
      "sellPrice": "Prix de vente"
    },
    "craftViewDiscoveredRecipesTemplate": {
      "title": "__Recettes découvertes__",
      "meal": "__Plats__",
      "chemistry": "__Objets chimiques__",
      "electronic": "__Objets électroniques__",
      "balls": "__Balls__",
      "module": "__Modules d'outils techniques__",
      "noRecipesDiscovered": "Aucune recette découverte..."
    },
    "craftCreationMedecineResultTemplate": {
      "title": "Fabrication d'objets",
      "youHaveCreated": "Vous avez fabriqué: ",
      "aMedecineObjet": "C'est une recette médicinale!",
      "aLure": "C'est un appât pour Pokémon!",
      "aBall": "C'est une Ball!",
      "aCraftMaterial": "C'est un matériau de fabrication!",
      "description": "Description",
      "components": "Ingrédients",
      "group": "Groupe de module",
      "illegal": "Illégal?",
      "type": "Type d'objet",
      "sellPrice": "Prix de vente"
    },
    "craftCreationMealResultTemplate": {
      "title": "Fabrication d'objets",
      "youHaveCreated": "Vous avez fabriqué: ",
      "aMealObject": "C'est un plat! Miam!",
      "description": "Description",
      "components": "Ingrédients",
      "group": "Groupe de plat",
      "sellPrice": "Prix de vente"
    },
    "craftCreationCommandTemplate": {
      "title": "Template de la commande de fabrication d'objets",
      "description": "```nb!fabrication fabriquer \n--Composant1=\n--Composant2=\n--Composant3=\n--Composant4=\n--NivCaractéristique=\n--NivCompétence=\n--Modificateur=```"
    },
    "craftModuleRecipeShowTemplate": {
      "title": "Détails du module",
      "errorTitle": "Erreur",
      "errorNotDiscovered": "Le module demandé n'a pas encore été découvert...",
      "errorNotFound": "Le module demandé est invalide ou n'existe pas."
    }
  },
  "berry": {
    "berryMixCommandTemplate": {
      "title": "Template de la commande de mixage de baies",
      "description": "```nb!baie mix \n--Baie1=\n--Baie2=\n--Baie3=\n--Baie4=\n--NivCaractéristique=\n--NivCompétence=\n--Modificateur=```"
    },
    "berryMixTemplate": {
      "title": "C'est l'heure du mixage!"
    },
    "berryViewTemplate": {
      "titleStartHook": "[",
      "titleEndHook": "] Baie ",
      "firmness": "Fermeté",
      "size": "Taille",
      "cm": " cm",
      "description": "Description",
      "tastes": "Goûts",
      "tastesDescription": "Retrouvez ci-dessous les forces des goûts de la baie recherchée",
      "astringency": "Astringent",
      "salty": "Salé",
      "umami": "Umami",
      "spicy": "Épicé",
      "dry": "Sec",
      "sweet": "Sucrée",
      "bitter": "Amère",
      "sour": "Acide"
    }
  },
  "biome": {
    "biomesViewTemplate": {
      "title": "Liste des biomes disponibles"
    }
  },
  "dice": {
    "throwCommentary": {
      "reallyShort": "Ça passe très juste.\n",
      "short": "Ça passe juste.\n",
      "average": "Ça passe!\n",
      "large": "Ça passe largement!\n"
    },
    "specialThrow": {
      "absoluteFail": "C'est un échec absolu!\n",
      "absoluteSuccess": "C'est une réussite absolue!\n",
      "criticFail": "C'est un échec critique!\n",
      "criticSuccess": "C'est une réussite critique!\n"
    },
    "validThrow": "Votre jet est valide!\n",
    "invalidThrow": "Votre jet n'est pas valide!\n",
    "valueRange": "Votre plage de validation de votre jet est comprise entre 1 et ",
    "youHaveMade": "vous avez fait ",
    "diceSum": "La moyenne de ces jets est de ",
    "diceThrown": "Les dés sont jetés!"
  },
  "player": {
    "foundItemTitle": "Objets trouvés",
    "sellFoundItemTitle": "Vente des objets trouvés",
    "keepFoundItemTitle": "Garder des objets trouvés",
    "keepFoundItemDescriptionNotFound": "Vous n'avez pas d'objets de ce type.",
    "keepFoundItemDescription": "Les objets '{ITEMNAME}' ne seront pas revendus. Ne s'applique pas aux prochains objets de ce type trouvés.",
    "keepFoundItemSubCategoryDescription": "Les objets de la sous catégorie '{SUBCATEGORYNAME}' ne seront pas revendus. Ne s'applique pas aux prochains objets de ce type trouvés.",
    "keepFoundItemCategoryDescription": "Les objets de la catégorie '{CATEGORYNAME}' ne seront pas revendus. Ne s'applique pas aux prochains objets de ce type trouvés.",
    "sellFoundItemDescription": "La vente de '{ITEMNAME}' vous a rapporté {MONEY} pokédollars.",
    "sellFoundItemCategoryDescription": "La vente de vos objets trouvés vous a rapporté {MONEY} pokédollars.",
    "sellFoundItemsDescription": "La vente de tous vos objets trouvés vous raportera {MONEY} pokédollars.",
    "sellFoundItemConfirmationDescription": "La vente de tous vos objets trouvés vous a rapporté {MONEY} pokédollars.",
    "cannotSellSpecialItems": "Vous ne pouvez pas vendre cet objet! C'est un cadeau particulier de votre Pokémon.",
    "cannotSellSpecialItemsCategory": "Vous ne pouvez pas vendre ces objets! Ce sont des cadeaux particuliers de vos Pokémon.",
    "stats": {
      "title": "Statistiques de lancer du joueur/de la joueuse",
      "noData": "Pas assez d'informations.",
      "meanDicePart1": "La moyenne de vos lancer de dés sur cette periode est ",
      "meanDicePart2": ", celle du groupe est de ",
      "graphicName": "**__Graphique des jets du joueur et du groupe__**",
      "graphicValue": "Le graphique ci-dessous montre le nombre de réussite (et autres types de jets) depuis le début du joueur ou de la joueuse et du groupe. \nC = Critique\nA = Absolue"
    },
    "money": {
      "obtain": " a obtenu ",
      "remove": " c'est vu retiré ",
      "youSpend": "Vous avez dépensé ",
      "moneyTotal": "Argent total: ",
      "pokedollarEnd": " pokédollars.",
      "manageMoney": "Gestion de l'argent",
      "moneyModificationStart": "Modification du portemonnaie de ",
      "moneyModificationEnd": " joueurs(euses)."
    }

  },
  "pokémon": {
    "canBeFindIn": " se trouve dans les biomes suivants: \n\n",
    "haveType": " possède le type ",
    "haveTypes": " possède les types ",
    "someHaveTypes": "Certains d'entre eux peuvent avoir le type ",
    "inBiome": "Dans les biomes suivant de façon",
    "addConditionPokémon": {
      "beauty": "Sa beauté augmente!",
      "cuteness": "Sa grâce augmente!",
      "cleverness": "Son intelligence augmente!",
      "toughness": "Sa robustesse augmente!",
      "coolness": "Son sang-froid augmente!",
      "liveliness": "Sa vivacité  augmente!",
      "atypical": "Son atypie augmente!",
      "natural": "Son naturel augmente!"
    },
    "biomeRarity": {
      "co": " __commune__: ",
      "unco": " __peu commune__: ",
      "rare": " __rare__: ",
      "event": "On le croise aussi de façon __évènementielle__ dans le(s) biome(s) suivant(s): \n"
    },
    "pokémonPokédexTemplate": {
      "normalField": "**Normal**\n",
      "alphaField": "**Alpha**",
      "titanField": "**Titan**",
      "livingZone": "Lieux de vie",
      "types": "Type(s)",
      "description": "Description",
      "noDescription": "Pas d'informations",
      "favoriteFoodName": "Nourriture(s) préférée(s)",
      "dangerousnessTitle": "Dangerosité relative du Pokémon",
      "sexRepartition": "Répartition des sexes",
      "credit": "Credit",
      "artistCredit": "Artwork original par [{ARTIST}]({LINK})",
      "dangerousnessDescriptions": {
        "case0": "{EMOJI} Le danger de ce Pokémon est inconnu ou mal connu.",
        "case1": "{EMOJI} Ce Pokémon est extrêmement amical et ne représente aucun danger.",
        "case2": "{EMOJI} Ce Pokémon n'est pas du tout dangereux et se montrera très amical.",
        "case3": "{EMOJI} Ce Pokémon n'est relativement pas dangereux, vous pouvez l'ignorer sans conséquence.",
        "case4": "{EMOJI} Ce Pokémon est souvent neutre mais les choses peuvent changer.",
        "case5": "{EMOJI} Ce Pokémon peut être dangereux en fonction des situations, restez prudents.",
        "case6": "{EMOJI} Ce Pokémon est dangereux et vous ne devriez pas vous en approcher trop.",
        "case7": "{EMOJI} Ce Pokémon est très dangereux et vous devriez vous en éloigner de toute urgence!",
        "case8": "{EMOJI} Ce Pokémon représente un danger absolu que vous ne pourrez fuir!"
      },
      "sexDescriptions": {
        "caseM2": " La répartition des sexes de cette espèce est inconnue.",
        "caseM1": " Les individus de cette espèce sont tous assexués.",
        "case0": " Les individus de cette espèce sont tous des mâles.",
        "case1": " Les individus de cette espèce sont à 12,5% des femelles et à 87,5% des mâles.",
        "case2": " Les individus de cette espèce sont à 25% des femelles et à 75% des mâles.",
        "case4": " Les individus de cette espèce sont à 50% des femelles et à 50% des mâles.",
        "case6": " Les individus de cette espèce sont à 75% des femelles et à 25% des mâles.",
        "case7": " Les individus de cette espèce sont à 87,5% des femelles et à 12,5% des mâles.",
        "case8": " Les individus de cette espèce sont tous des femelles"
      },
      "favoriteFoodValue": "Nourriture(s) préférée(s) du Pokémon: ",
      "height": "Taille",
      "heightVariations": {
        "min": "- Le plus petit ",
        "average": "- Médian ",
        "max": "- Le plus grand "
      },
      "weight": "Poids",
      "weightVariations": {
        "min": "- Le plus léger ",
        "average": "- Médian ",
        "max": "- Le plus lourd "
      },
      "browser": "Navigateur",
      "pokémonRangerData": "Les données ci-dessous concernent les Pokémon Rangers.",
      "pokéAssist": "Poké Aide",
      "fieldsMove": "Capacité(s) Terrain",
      "talents":
      {
        "title": "Talents de ",
        "hidden": " *(Talent caché)*",
        "basculinW": " *(Motif Blanc)*",
        "basculinR": " *(Motif Rouge)*",
        "basculinB": " *(Motif Bleu)*",
        "femaleOnly": " *(Femelle)*",
        "maleOnly": " *(Mâle)*",
        "toxtricityA": " *(Aïgue)*",
        "toxtricityL": " *(Grave)*"
      },
      "traits": {
        "title": "Potentiels traits spécifiques",
        "antique": {
          "guaranteed": "Les individus possèdent tous le trait antique.\n",
          "notGuaranteed": "Environ {PERCENT}% d'individus possèderaient le trait antique.\n" 
        }
      }
    },
    "pokemonGenerateTemplate": {
      "surprise": "Surprise! Un Pokémon sauvage apparaît !",
      "alpha": "Attention ! C'est un Pokémon Alpha !",
      "tera": "Ce Pokémon brille de mille feux ! C'est un Pokémon Téracristal !",
      "titan": "DANGER IMMINENT ! C'est un Pokémon Titan !!!",
      "alphaTera": "Attention ! Ce Pokémon Alpha a téracristalisé !",
      "titanTera": "DANGER IMMINENT ! C'est un Titan Téracristal !!!",
      "pokemonFoundStart": "Le Pokémon trouvé est **",
      "pokemonFoundEnd": "** !\n",
      "pokemonID": "Son ID est ",
      "shinyTitle": "Chromatique",
      "shiny": "C'est un Pokémon chromatique !",
      "heightTitle": "Taille",
      "weightTitle": "Poids",
      "sexTitle": "Sexe",
      "teraTitle": "Téracristal",
      "abilityTitle": "Talent",
      "antiqueTitle": "Trait antique",
      "traitsNotesTitle": "Traits du Pokémon",
      "traitsNotesDescription": "Le Pokédex détecte les traits suivant:\n",
      "antiqueDescription": "Ce Pokémon possède le trait antique !", 
      "abilityDescription": "Son talent est **{TALENT}**",
      "sexDescription": "Le Pokémon est **",
      "dangerousnessTitle": "Dangerosité relative du Pokémon",
      "teraType": {
        "Plante" : "Un sublime bouquet de fleur ",
        "Feu": "Un magnifique chandelier ",
        "Eau": "Une mystérieuse fontaine ",
        "Acier": "Une splendide hâche ",
        "Dragon" : "Un imposant dragon ",
        "Électrik": "Une prodigieuse ampoule ",
        "Fée": "Un superbe cœur ailé ",
        "Glace": "Un resplendissant flocon ",
        "Insecte": "Un insecte fascinant ",
        "Normal": "Une belle couronne à trois joyaux ",
        "Poison": "Un étrange crâne ",
        "Psy": "Un mystérieux œil ",
        "Roche": "Un monument fascinant ",
        "Sol": "Une imposante moitié de globe ",
        "Spectre": "Un effroyable spectre ",
        "Ténèbres": "Un étrange sourire maléfique ",
        "Vol": "Un groupe de trois jolis ballons ",
        "Fungus": "Un majestueux champignon ",
        "Inconnu": "Un fantastique point d'interrogation "
      },
      "teraEnd": "trône au dessus de sa tête.",
      "teraTypeNotBoss": "Une étrange lueur semble s'être échappé du Pokémon..."
    }
  },
  "playersPokémon": {
    "pokémonSheetTemplate": {
      "error" : {
        "title1": "ID du Pokémon inconnu",
        "title2": "ID du Dresseur inconnu",
        "field1": "Ce joueur ne possède pas de Pokémon avec cet ID, ou n'a pas de Pokémon.",
        "field2": "Ce joueur n'existe pas dans les données.'"
      },
      "surname": {
        "male": "{SURNAME} le {POKÉMON}",
        "female": "{SURNAME} la {POKÉMON}",
        "vowel": "{SURNAME} l'{POKÉMON}"
      },
      "id": " - [ID N°{IDPOKE}]",
      "level": "Niveau",
      "status": "Statut",
      "sex": "Genre",
      "catchBall": "Ball",
      "date": {
        "title": "Date de capture",
        "field": "Ce Pokémon a été capturé le **{DATE}**."
      },
      "teraType": "Type Téracristal",
      "ability": "Talent",
      "size": {
        "title": "Taille",
        "field": " {HEIGHT} m"
      },
      "weight": {
        "title": "Poids",
        "field": " {WEIGHT} kg"
      },
      "pokebloc": {
        "title": "Pokébloc préféré",
        "field": "Ce Pokémon {FOOD} : ",
        "color": [
          "mange **tout de bon cœur**",
          "aime les aliments **Épicés**",
          "aime les aliments **Secs**",
          "aime les aliments **Sucrés**",
          "aime les aliments **Amers**",
          "aime les aliments **Acides**",
          "aime les aliments **Salés**",
          "aime les aliments **Umami**",
          "aime les aliments **Astringents**"
        ]
      },
      "friendship": "Amitié",
      "moves": "Liste des Capacités",
      "noMoves": "Le Pokémon ne connaît aucune capacité :c",
      "condition": {
        "title": "Condition",
        "beauty": "- Beauté : ",
        "cuteness": "- Grâce : ",
        "cleverness": "- Intelligence : ",
        "toughness": "- Robustesse : ",
        "coolness": "- Sang-Froid : ",
        "liveliness": "- Vivacité : ",
        "atypical": "- Atypie : ",
        "natural": "- Naturel : "
      },
      "notes": "Notes",
      "noNotes": "Ce Pokémon n'a pas de note.",
      "foundItem": {
        "none": "Ce Pokémon n'a encore rien trouvé... pour l'instant !",
        "lastItemsLine": "Derniers objets trouvés",
        "specialItemsLine": "Objets spéciaux trouvés/offerts",
        "specialItemsLineValue": "Vos Pokémon peuvent trouver ou vous offrir certains objets particuliers.",
        "noItemFound": "Votre Pokémon n'en a encore jamais trouvé...",
        "silverLeaf": "Feuille Argentée",
        "goldLeaf": "Feuille Dorée",
        "bouquet": "Petit Bouquet",
        "goldLeafRule": "Votre Pokémon vous en trouvera une fois qu'il aura trouvé 5 Feuilles Argentées!",
        "bouquetRule": "Votre Pokémon vous en offrira une fois qu'il aura trouvé 3 Feuilles Dorées!"
      }
    },
    "allTrainerPokémon": {
      "title": "Liste des Pokémon",
      "trainer": "Pokémon de __{PLAYER}__\n\n",
      "surname": " *(Surnom : {SURNAME})*",
      "id": " *(ID : {IDPOKE})*\n",
      "none": "Vous n'avez pas de Pokémon."
    },
    "levelAndFriendship": {
      "title": {
        "level": "Augmentation de niveau des Pokémon.",
        "friendship": "Augmentation de l'amitié des Pokémon."
      },
      "levelUp": "__**{POKÉMON}**__ passe du niveau **{OLDLEVEL}** au niveau **{NEWLEVEL}**!\n",
      "maxLevel": "__**{POKÉMON}**__ est déjà au niveau **100**.\n",
      "friendship": "L'amitié de **{POKÉMON}** {CHANGE}",
      "change": [
        "ne change pas. ",
        "augmente de 1 niveau ! ",
        "augmente de 2 niveaux ! ",
        "augmente joliment de 2 niveaux !",
        "augmente joliment de 4 niveaux ! "
      ],
      "maxFriendship": "**{POKÉMON}** vous adore déjà ! "
    },
    "moveChange": {
      "titleEmbed": "Maître des Capacités",
      "title": "{POKÉMON} de {NAME}",
      "inchanged": "-garde {OLDMOVE}!\n",
      "changed" : "-a oublié {OLDMOVE} et apprend {NEWMOVE}!\n",
      "remove": "- a oublié {OLDMOVE}!\n",
      "added" : "- apprend {NEWMOVE}!\n"
    },
    "noteChange": {
      "titleEmbed": "Notes",
      "template": {
        "titleField": "Template de modification, des notes d'un Pokémon",
        "noID": "Aucun ID n'a été renseigné, aucun template ne peut être généré.",
        "noPokemon": "Aucun Pokémon n'est associé à cet ID, aucun template ne peut être généré",
        "noTrainer": "Aucun joueur n'est associé à cet ID, aucun template ne peut être généré",
        "templateData": "Voici la commande à effectuer pour modifier les notes de ce Pokémon:\n```{COMMAND}```\nVous pouvez la copier en cliquant sur l'icône se trouvant en haut à droite de la zone grisée."
      },
      "normal" : {
        "titleField": "Modification des notes de votre Pokémon",
        "noTrainer": "Aucun joueur n'est associé à cet ID, aucun changement n'a été effectué.",
        "noID": "Aucun Pokémon n'associé à cet ID, aucun changement n'a été effectué.",
        "data": "Le changement de notes a été effectué !\n",
        "information": "- Note n°{ID}: ",
        "reason": {
          "add": "Ajoutée avec succès !",
          "tooLong": "La note n'a pas été ajoutée (+ de {NB} caractères).\n",
          "delete": "La note a été effacée.",
          "last": " *Précédemment: `{NOTE}`*"
        }
      },
      "title": "{POKÉMON} de {NAME}",
      "inchanged": "- garde {OLDMOVE}!\n",
      "changed" : "- a oublié {OLDMOVE} et apprend {NEWMOVE}!\n",
      "remove": "- a oublié {OLDMOVE}!\n",
      "added" : "- apprend {NEWMOVE}!\n"
    },
    "nicknameChange": {
      "titleEmbed": "Spécialiste des Noms",
      "title": "Désormais, le surnom de {POKEMON} sera {SURNAME}!",
      "changed": "C'est un bien meilleur nom, tu ne trouves pas ?\n",
      "same" : "Comment ? Ça ne change pas vraiment ? Ce n'est qu'une impression.\nSon nouveau nom est bien meilleur que l'ancien.",
      "remove": "Tu préfères l'appeler par le nom de son espèce ?\n Je comprends parfaitement, c'est quand même plus joli ainsi, non ?",
      "return": "Aucune information trouvée."
    },
    "pokemonEvolutionTemplate": {
      "titleEmbed":"Évolution d'un Pokémon",
      "evolution": {
        "title": "Quoi ? **{{NOMPOKEMON}}** évolue !",
        "field": "Félicitations **{{PSEUDOJOUEUR}}** ! Votre {{BASEPOKEMON}} a évolué en **{{NEWPOKEMON}}** !"
      },
      "noTrainer": {
        "title": "Aucun joueur trouvé.",
        "field": "L'ID `{{IDJOUEUR}}`ne figure pas parmi votre liste de joueurs."
      },
      "noPokemon" : {
        "title": "Aucun Pokémon trouvé.",
        "field": "Le joueur `{{PSEUDOJOUEUR}}` ne possède pas de Pokémon à l'ID {{IDPOKEMON}}."
      },
      "notKnownPokemon": {
        "title": "Le Pokémon choisi n'existe pas.",
        "field": "`{{NOMPOKEMON}}` n'est pas un Pokémon existant."
      }
    }
  },
  "trainers": {
    "gender": {
      "male": "Homme",
      "female": "Femme",
      "neutral": "Neutre"
    },
    "pronoun":
    {
      "male":"le",
      "female": "la",
      "neutral": "lea",
      "vowel": "l'"
    } ,
    "title": " veut se battre !",
    "level": "Niveau",
    "class": {
      "coordinator" : {
        "male":"Coordinateur",
        "female":"Coordinatrice",
        "neutral": "Coordinaltesse"
      },
      "trainer": {
        "male":"Dresseur",
        "female":"Dresseuse",
        "neutral": "Dresseure"
      },
      "photographer": "Photographe",
      "ranger": "Ranger"
    },
    "collectible": {
      "photographer": "Écrins",
      "trainer": "Badge",
      "coordinator": "Rubans",
      "ranger": "Médailles"
    }
  },
  "system": {
    "dataDumpAndReset": "Données dump et réinitialisées.",
    "startDatabases": "Données initialisées.",
    "dataDump": "Dump créé.",
    "addLogChannel":  "Ajout du salon de log pour " ,
    "initializeMoneyStart":  "Initialisation du portemonnaie de " ,
    "initializeMoneyEnd":  " joueur(s)." ,
    "deleteOfStart": "Supression de ",
    "addOfStart": "Ajout de ",
    "doneEnd": " effectué.",
    "userStart": "Utilisateur ",
    "userNotFoundEnd": " non trouvé.",
    "userAlreadyAddedEnd": " déjà ajouté(e)."
  },
  "help": {
    "main": {
      "helpCommandTitle": "__Découverte du Nigobot 3000__",
      "descriptionTitle": "__**Commandes de la partie Bot**__ ",
      "description": "```nb!ping```Permet de ping le Nigobot et de voir si il est actif.\n```nb!lore```Permet d'avoir accès aux dossiers et fiches de Lore du JDR.\n\n**⚠** Tout ce qui est décrit en dessous n'est pas forcément présent actuellement **⚠**",
      "fields": {
        "playerPart": {
          "fieldTitle": "__**Partie Joueur**__ ",
          "fieldContent": "Cette partie vous permet de gérer les inventaires, Pokémon et les données de vos personnages.\nFaites nb!joueur aide pour plus d'informations!"
        },
        "dicePart": {
          "fieldTitle": "__**Partie Dé**__ ",
          "fieldContent": "Cette partie vous permet de générer différents lancers de dés et valider vos jets de d100.\nFaites nb!dé aide pour plus d'informations!"
        },
        "biomePart": {
          "fieldTitle": "__**Partie Biome**__ ",
          "fieldContent": "Cette partie vous permet de voir les biomes des zones et terres sauvages et de voir les Pokémon qui y habitent. Permet également de générer des Pokémon aléatoire en fonction du biome.\nFaites nb!biome aide pour plus d'informations!"
        },
        "pokemonPart": {
          "fieldTitle": "__**Partie Pokémon (Générale)**__ ",
          "fieldContent": "Cette partie vous permet de voir le Pokédex et ses informations.\nFaites nb!pokémon aide pour plus d'informations!"
        },
        "pokemonTrainerPart": {
          "fieldTitle": "__**Partie Pokémon (Joueur)**__ ",
          "fieldContent": "Cette partie vous permet de voir les Pokémon que vous possédez et de pouvoir modifier certaines de leurs informations.\nFaites nb!pokémon aideMesPokémon pour plus d'informations!"
        },
        "berryPart": {
          "fieldTitle": "__**Partie Baie**__ ",
          "fieldContent": "Cette partie vous permet de voir les informations des Baies et de faire des mix pour obtenir des Pokéblocs.\nFaites nb!baie aide pour plus d'informations!"
        },
        "craftPart": {
          "fieldTitle": "__**Partie Fabrication**__ ",
          "fieldContent": "Cette partie vous permet de voir les informations des recettes de création d'objets et de faire des fabriquer différents types d'objets.\nFaites nb!fabrication aide pour plus d'informations!"
        },
        "calendarPart": {
          "fieldTitle": "__**Partie Calendrier**__ ",
          "fieldContent": "Cette partie vous permet de voir le calendrier du JdR, ainsi que les évènements liés à chaque jour.\nFaites nb!calendrier aide pour plus d'informations!"
        },
        "trainerPart": {
          "fieldTitle": "__**Partie Dresseurs**__ ",
          "fieldContent": "Cette partie vous permet de générer des dresseurs et leurs informations, comme leur nombre de badges ou de Pokémon.\nFaites nb!dresseur aide pour plus d'informations!"
        },
        "itemPart": {
          "fieldTitle": "__**Partie Objets**__ ",
          "fieldContent": "Cette partie vous permet de voir les informations concernant les objets.\nFaites nb!objet aide pour plus d'informations!"
        }
      }
    },
    "berry": {
      "helpCommandTitle": "Liste des commandes concernant la partie **Baie**",
      "viewBerry": {
        "fieldTitle": "Voir les informations d'une Baie",
        "fieldContent": "```nb!baie voir X```Valeurs de X possibles: Le nom d'une baie existante\n\nPermet de voir le détail d'une baie"
      },
      "mixTemplate": {
        "fieldTitle": "Générer le template de mixage de baie",
        "fieldContent": "```nb!baie mixTemplate```Permet de générer le template de la commande de mixage de baies"
      },
      "mixBerries": {
        "fieldTitle": "Faire un mixage de Baies",
        "fieldContent": "```nb!baie mix \n--Baie1=A\n--Baie2=B\n--Baie3=C\n--Baie4=D\n--NivCaractéristique=X\n--NivCompétence=Y\n--Modificateur=Z```Valeurs de A, B, C et D possibles: Le nom d'une baie existante\nValeurs de X possibles: La valeur de votre caractériqtique pour le test demandé. Le chiffre dois être compris entre 0 et 5.\nValeurs de Y possibles: La valeur de la compétence que vous souhaitez utiliser. Peut être nulle.\nValeurs de Z possibles: La valeur du bonus ou du malus que vous possédez pour ce test.\n\nPermet de générer un lancer de dé 100 afin de servir de base sur l'échec ou non du mixagond message avec le résultat de votre mixage sera ensuite envoyé!"
      },
      "generalTable": {
        "fieldTitle": "Tableau des baies",
        "fieldContent": "```nb!baie tableau X```Valeurs de X possibles: Un entier compris entre 1 et 8.\n\nPermet de générer un tableau listant les baies ainsi que leurs goûts."
      },
      "sortedTable": {
        "fieldTitle": "Tableau des baies trié par goût",
        "fieldContent": "```nb!baie tableauTrié X Y```Valeurs de X possibles: Le goût que vous voulez trier les baies (Astringent, Salé, Umami, Épicé, Sec, Sucrée, Amère, Acide).\nValeurs de Y possibles: Un entier compris entre 1 et 8.\n\nPermet de générer un tableau listant les baies ainsi que leurs goûts."
      }
    },
    "biome": {
      "helpCommandTitle": "Liste des commandes concernant la partie **Biome**",
      "biomesView": {
        "fieldTitle": "Voir l'ensemble des biomes",
        "fieldContent": "```nb!biome biomes```Permet de voir les noms des biomes gérés actuellement.\n"
      },
      "biomeView": {
        "fieldTitle": "Voir l'ensemble des Pokémon présent dans un biome",
        "fieldContent": "```nb!biome X voir```Valeurs de X possibles: L'ensemble des noms de biomes\n\nPermet de visualiser les Pokémon vivants dans le biome X ainsi que les informations du biome X.\n"
      },
      "generatePokémon": {
        "fieldTitle": "Générer un Pokémon aléatoire en fonction d'un biome et d'une rareté",
        "fieldContent": "```nb!biome X générer Y```Valeurs de X possibles: L'ensemble des noms de biomes\nValeurs de Y possibles: commun, unco, rare, event\n\nPermet de générer un Pokémon aléatoire en fonction du biome X et de la rareté du Pokémon dans ce biome Y."
      }
    },
    "item": {
      "helpCommandTitle": "Liste des commandes concernant la partie **Objet**",
      "viewItem": {
        "fieldTitle": "Voir les informations d'un objet fabricable",
        "fieldContent": "```nb!objet voir X```Valeurs de X possibles: L'ensemble des noms d'objets"
      },
      "viewSubCategory": {
        "fieldTitle": "Voir les informations d'une sous catégorie d'objet",
        "fieldContent": "```nb!objet voirSousCatégorie X```Valeurs de X possibles: L'ensemble des noms de sous catégories"
      },
      "viewCategory": {
        "fieldTitle": "Voir les informations d'une catégorie d'objet",
        "fieldContent": "```nb!objet voirCatégorie X```Valeurs de X possibles: L'ensemble des noms de catégories"
      },
      "viewCategories": {
        "fieldTitle": "Voir l'ensemble des catégories d'objet",
        "fieldContent": "```nb!objet voirCatégories```"
      }
    },
    "craft": {
      "helpCommandTitle": "Liste des commandes concernant la partie **Fabrication**",
      "viewCraftRecipe": {
        "fieldTitle": "Voir les informations d'un objet fabricable",
        "fieldContent": "```nb!fabrication voir X```Valeurs de X possibles: L'ensemble des noms de recettes."
      },
      "viewDiscoveredRecipe": {
        "fieldTitle": "Voir les recettes découvertes",
        "fieldContent": "```nb!fabrication découvert```Permet de voir l'ensemble des recettes découvertes par le groupe."
      },
      "craftTemplate": {
        "fieldTitle": "Générer le template de création d'objets",
        "fieldContent": "```nb!fabrication craftTemplate```Permet de générer le template de la commande de création d'objet.\nValeurs de X possibles: Un titre de recette valide."
      },
      "craftCommand": {
        "fieldTitle": "Créer un objet",
        "fieldContent": "```nb!fabrication fabriquer  \n--Composant1=A\n--Composant2=B\n--Composant3=C\n--Composant4=D\n--NivCaractéristique=X\n--NivCompétence=Y\n--Modificateur=Z```Valeurs de A, B, C et D possibles: Le nom d'un ingrédient ou d'un composant\nValeurs de X possibles: La valeur de votre caractériqtique pour le test demandé. Le chiffre dois être compris entre 0 et 5.\nValeurs de Y possibles: La valeur de la compétence que vous souhaitez utiliser. Peut être nulle.\nValeurs de Z possibles: La valeur du bonus ou du malus que vous possédez pour ce test.\n\nPermet de générer un lancer de dé 100 afin de servir de base sur l'échec ou non de la création d'objet.Le template de lancer de dé généré, les composants seront ensuite utilisés et en fonction de votre réussite ou non, un second message avec le résultat de votre création sera ensuite envoyé!"
      }
    },
    "dice": {
      "helpCommandTitle": "Liste des commandes concernant la partie **Fabrication**",
      "randomDices": {
        "fieldTitle": "Générer un ou plusieurs lancés de dé(s) en fonction d'un nombre de faces",
        "fieldContent": "```nb!dé lancer XdY```Valeurs de X possibles: Un entier suppérieur à 0 correspondant au nombre de dé lancé\nValeurs de Y possibles: Un entier suppérieur à 0 correspondant au nombre de face du dé\n\nPermet de générer un ou plusieurs lancés de dé(s) aléatoire(s) en fonction d'un nombre de faces donné."
      },
      "sumRandomDices": {
        "fieldTitle": "Générer un ou plusieurs lancés de dé(s) en fonction d'un nombre de faces en affichant la moyenne des veleurs des lancés de dés",
        "fieldContent": "```nb!dé moyenne XdY```Valeurs de X possibles: Un entier suppérieur à 0 correspondant au nombre de dé lancé\nValeurs de Y possibles: Un entier suppérieur à 0 correspondant au nombre de face du dé\n\nPermet de générer un ou plusieurs lancés de dé(s) aléatoire(s) en fonction d'un nombre de faces donné et d'avoir la moyenne des résultats."
      },
      "validateThrowDices": {
        "fieldTitle": "Générer et valider un lancé de dé 100",
        "fieldContent": "```nb!dé valider X Y --modif=Z```Valeurs de X possibles: La valeur de votre caractériqtique pour le test demandé. Le chiffre dois être compris entre 0 et 5.\nValeurs de Y possibles: La valeur de la compétence que vous souhaitez utiliser. Peut être nulle.\nValeurs de Z possibles: La valeur du bonus ou du malus que vous possédez pour ce test. Il faut utiliser le supplément '--modif=' et indiquer la valeur après le égal.\n\nPermet de générer et de valider un lancer de dé 100 en fonction de votre niveau dans una caractéristique, compétence et de votre malus/bonus."
      },
      "privateValidateThrowDices": {
        "fieldTitle": "Générer et valider un lancé de dé 100 en privé",
        "fieldContent": "```nb!dé privé X Y --modif=Z```Valeurs de X possibles: La valeur de votre caractériqtique pour le test demandé. Le chiffre dois être compris entre 0 et 5.\nValeurs de Y possibles: La valeur de la compétence que vous souhaitez utiliser. Peux être nul.\nValeurs de Z possibles: La valeur du bonus ou du malus que vous possédez pour ce test. Il faut utiliser le supplément '--modif=' et indiquer la valeur après le égal.\n\nA faire en message privé avec le Nigobot 3000 afin de ne pas être visible par les autres joueurs.\nPermet de générer et de valider un lancer de dé 100 en fonction de votre niveau dans una caractéristique, compétence et de votre malus/bonus."
      }
    },
    "inventory": {
      "helpCommandTitle": "Liste des commandes concernant la partie **Joueur**",
      "foundItem": {
        "fieldTitle": "Voir les objets trouvés par vos Pokémon",
        "fieldContent": "```nb!inventaire voirObjetsTrouvés```"
      },
      "keepItem": {
        "fieldTitle": "Garder un objet de vos objets trouvés. Ne gardera pas les futurs objets trouvés de ce type.",
        "fieldContent": "```css\nnb!inventaire garderObjetTrouvé X```"
      },
      "keepItemSubCategory": {
        "fieldTitle": "Garder une sous catégorie d'objet de vos objets trouvés. Ne gardera pas les futurs objets trouvés de ce type.",
        "fieldContent": "```css\nnb!inventaire garderObjetTrouvéSousCatégorie Y```"
      },
      "keepItemCategory": {
        "fieldTitle": "Garder une catégorie d'objet de vos objets trouvés. Ne gardera pas les futurs objets trouvés de ce type.",
        "fieldContent": "```css\nnb!inventaire garderObjetTrouvéCatégorie Z```"
      },
      "sellItem": {
        "fieldTitle": "Vendre un objet de vos objets trouvés. Ne vendra pas les objets gardés ou les objets spéciaux.",
        "fieldContent": "```css\nnb!inventaire vendreObjetTrouvé X```"
      },
      "sellItemSubCategory": {
        "fieldTitle": "Vendre une sous catégorie d'objet de vos objets trouvés. Ne vendra pas les objets gardés ou les objets spéciaux.",
        "fieldContent": "```css\nnb!inventaire vendreObjetTrouvéSousCatégorie Y```"
      },
      "sellItemCategory": {
        "fieldTitle": "Vendre une catégorie d'objet de vos objets trouvés. Ne vendra pas les objets gardés ou les objets spéciaux.",
        "fieldContent": "```css\nnb!inventaire vendreObjetTrouvéCatégorie Z```"
      },
      "estimateAllFoundItems": {
        "fieldTitle": "Estimer le montant de la vente de tous vos objets trouvés. Ne vendra pas les objets gardés ou les objets spéciaux.",
        "fieldContent": "```css\nnb!inventaire estimationTousObjetsTrouvés```"
      },
      "sellAllFoundItems": {
        "fieldTitle": "Vendre tous vos objets trouvés. Ne vendra pas les objets gardés ou les objets spéciaux.",
        "fieldContent": "```css\nnb!inventaire vendreTousObjetsTrouvés```"
      },
      "values": {
        "fieldTitle": "Valeurs",
        "fieldContent": "```diff\nX = Nom de l'objet\nY = Nom de la catégorie\nZ = Non de la sous catégorie```"
      }
    },
    "player": {
      "helpCommandTitle" : "Liste des commandes concernant la partie **Joueur**",
      "money": {
        "money": {
          "fieldTitle": "Partie gestion de l'argent",
          "fieldContent": "Les commandes si dessous concerne la gestion de l'argent pour les joueurs/euses comme l'utilisateur admin."
        },
        "useMoney": {
          "fieldTitle": "Utiliser son argent",
          "fieldContent": "```nb!joueur utiliserArgent X```Valeurs de X possibles: le montant de l'argent que vous voulez utiliser.\nPermet d'utiliser un montant d'argent que ce soit dans une boutique Pokémon, entre joueurs, etc."
        },
        "throwStats": {
          "fieldTitle": "Voir ses statistiques de lancer",
          "fieldContent": "```nb!joueur statLancerPerso```"
        },
        "viewMoney": {
          "fieldTitle": "Voir son argent",
          "fieldContent": "```nb!joueur voirArgent```Permet de voir combien d'argent vous avez."
        },
        "addPlayerMoney": {
          "fieldTitle": "Ajouter de l'argent à un(e) joueur/euse (Commande Admin)",
          "fieldContent": "```nb!joueur addPlayerMoney X Y```Valeurs de X possibles: l'id Discord du joueur/euse.\nValeurs de Y possibles: le montant de l'argent que vous voulez donner à un(e) joueur/euse.\nPermet d'ajouter une somme d'argent à un(e) joueur/euse."
        },
        "removePlayerMoney": {
          "fieldTitle": "Retirer de l'argent à un(e) joueur/euse (Commande Admin)",
          "fieldContent": "```nb!joueur removePlayerMoney X Y```Valeurs de X possibles: l'id Discord du joueur/euse.\nValeurs de Y possibles: le montant de l'argent que vous voulez retirer à un(e) joueur/euse.\nPermet de retirer une somme d'argent à un(e) joueur/euse."
        },
        "addAllPlayersMoney": {
          "fieldTitle": "Ajouter de l'argent à l'ensemble des joueurs (Commande Admin)",
          "fieldContent": "```nb!joueur addAllPlayersMoney X```Valeurs de X possibles: le montant de l'argent que vous voulez donner à l'ensemble des joueurs.\nPermet d'ajouter une somme d'argent à l'ensemble des joueurs."
        },
        "removeAllPlayersMoney": {
          "fieldTitle": "Retirer de l'argent à l'ensemble des joueurs (Commande Admin)",
          "fieldContent": "```nb!joueur removeAllPlayersMoney X```Valeurs de X possibles: le montant de l'argent que vous voulez retirer à l'ensemble des joueurs.\nPermet de retirer une somme d'argent à l'ensemble des joueurs."
        }
      }
    },
    "system": {
      "helpCommandTitle": "Liste des commandes système (Commandes Admin)",
      "dump": {
        "fieldTitle": "Dump les données dynamiques",
        "fieldContent": "```nb!système dump```Permet de dump les données dynamiques."
      },
      "dumpCraftRecipes": {
        "fieldTitle": "Dump des données des recettes de fabrication",
        "fieldContent": "```nb!système dumpCraftRecipes```Permet de dump les données du JSON des recettes de fabrication."
      },
      "dumpGeneratedPokémon": {
        "fieldTitle": "Dump des données des Pokémon générés",
        "fieldContent": "```nb!système dumpGeneratedPokémon```Permet de dump les données du JSON des Pokémon générés."
      },
      "addPlayer": {
        "fieldTitle": "Ajouter un utilisateur joueur",
        "fieldContent": "```nb!système addPlayer X```Valeurs de X possibles: l'id Discord du joueur/euse.\nPermet d'ajouter un utilisateur en temps que joueur/euse."
      },
      "removePlayer": {
        "fieldTitle": "Retirer un utilisateur joueur",
        "fieldContent": "```nb!système removePlayer X```Valeurs de X possibles: l'id Discord du joueur/euse.\nPermet de retirer un utilisateur en temps que joueur/euse."
      },
      "removeAllPlayers": {
        "fieldTitle": "Réinitiliser les données des joueurs",
        "fieldContent": "```nb!système removeAllPlayers```Permet de réinitiliser le JSON des joueurs après l'avoir dump."
      },
      "addLogChannelId": {
        "fieldTitle": "Ajouter un salon de log privé pour un joueur",
        "fieldContent": "```nb!système addLogChannelId X Y```Valeurs de X possibles: l'id Discord du joueur/euse.\nValeurs de Y possibles: l'id Discord du salon.\nPermet d'ajouter le salon de logs des opérations privées d'un(e) joueur/euse."
      },
      "initializeMoney": {
        "fieldTitle": "Initialiser le porte monnaie des joueurs",
        "fieldContent": "```nb!système initializeMoney```Permet d'initialiser l'attribut argent des joueurs."
      },
      "setPeriod": {
        "fieldTitle": "Changer le nom de la période temps actuelle",
        "fieldContent": "```nb!système setPeriod X```Permet de changer le nom de la période de temps.\nValeurs de X possibles: la nom de la période."
      },
      "setBiomeCategory": {
        "fieldTitle": "Changer l'id de la catégorie de biome où se trouvent les joueurs'",
        "fieldContent": "```nb!système setBiomeCategory X```Permet de changer le nom de la période de temps.\nValeurs de X possibles: Un nombre entre 1 et 9\n0: Copain, valeur interne pour les objets trouvés spéciaux\n1: Forêt\n2: Montagne\n3: Plaine\n4: Désert\n5: Eau (Mer)\n6: Caverne\n7: Urbain\n8: Inconnu, non paramétré pour les objets trouvés\n9: Paradoxe"
      }
    },
    "pokémon": {
      "helpCommandTitle": "Liste des commandes concernant la partie **Pokémon**",
      "pokedexPage": {
        "fieldTitle": "Voir la page Pokédex d'un Pokémon",
        "fieldContent": "```css\nnb!pokémon pokédex \n--Pokémon=A\n--Forme=B [*]\n--Forme2=C [*]```"
      },
      "genererPage": {
        "fieldTitle": "Générer un Pokémon selon une espèce",
        "fieldContent": "```css\nnb!pokémon générer \n--Pokémon=A\n--Forme=B [*]\n--Charme Chroma=F [*]\n--Charme Alpha=G [*]\n--Charme Taille=H [*]\n--Charme Tera=I [*]\n--Charme Titan=J [*]\n--Charme Antique=K [*]\n```"
      },
      "generer2Page": {
        "fieldTitle": "Générer un Pokémon selon un biome et une rareté",
        "fieldContent": "```css\nnb!pokémon générer \n--Biome=D\n--Rareté=E\n--Charme Chroma=F [*]\n--Charme Alpha=G [*]\n--Charme Taille=H [*]\n--Charme Tera=I [*]\n--Charme Titan=J [*]\n--Charme Antique=K [*]```"
      },
      "values": {
        "fieldTitle": "Valeurs",
        "fieldContent": "```css\n[*] = Ces valeurs sont facultatives\n\nA: le Pokémon à générer;\n[vous trouverez les espèces sur www.poképédia.fr]\n\nB: Forme du Pokémon;\n[Alola, Galar, Hisui, Mega, Giga, ou nom de forme spécifique au Pokémon]\n\nC: Information secondaire concernant les formes;\n[concerne Shifours (Final, Mille), Méga-Dracaufeu(X, Y) et Méga-Mewtwo(X, Y)]\n\nD: Biôme où se trouve le Pokémon à générer;\n[la liste des biômes se trouve à 'nt!biome biomes']\n\nE: Rareté du Pokémon à générer;\n[Options: commun, unco, rare, event]\n\nF: Augmente légèrement, drastiquement, ou garanti un Pokémon chromatique;\n[Options: OUI, CONCOURS, GARANTI]\n\nG: Augmente les chances ou garanti un Pokémon Alpha;\n[Options: OUI, GARANTI]\n\nH: Influence la taille;\n[Options: MINI, XS, S, L, XL, MAXI]\n\nI: Augmente les chances ou garanti un type Téracristal spécial;\n[Options: OUI, GARANTI, BOSS]\n\nJ: Augmente les chances ou garanti un Pokémon Titan;\n[Options: OUI, GARANTI]\n\nK: Augmente les chances ou garanti le trait antique (si éligible);\n[Options: OUI, GARANTI]```"
      }
    },
    "trainersPokémon": {
      "helpCommandTitle": "Liste des commandes concernant la partie **Pokémon des Dresseurs**",
      "seeAllPokémonPage": {
        "fieldTitle": "Voir la liste de vos Pokémon",
        "fieldContent": "Utilisez cette commande pour obtenir la liste de vos Pokémon.```css\nnb!pokémon voirMesPokémon```"
      },
      "seePokémonPage": {
        "fieldTitle": "Voir la fiche d'un de vos Pokémon",
        "fieldContent": "Utilisez cette commande pour voir la fiche d'un Pokémon en particulier.```css\nnb!pokémon voirMonPokémon X```"
      },
      "changeMovePage": {
        "fieldTitle": "Modifier les capacités d'un de vos Pokémon ",
        "fieldContent": "Utilisez cette commande pour modifer les capacités d'un de vos Pokémon.```css\nnb!pokémon changerCapacités \n--IDPokémon=X\n--Capacité1=A\n--Capacité2=A\n--Capacité3=A\n--Capacité4=A```"
      },
      "changeNicknamePage": {
        "fieldTitle": "Modifier le surnom d'un de vos Pokémon ",
        "fieldContent": "Utilisez cette commande pour renommer un de vos Pokémon.```css\nnb!pokémon changerSurnom \n--IDPokémon=X\n--Surnom=B```"
      },
      "templateChangeNotesPage": {
        "fieldTitle": "Obtenir un modèle pour modifier les notes d'un de vos Pokémon ",
        "fieldContent": "```css\nnb!pokémon modèleModifierNotes X```\nCette commande vous affichera un modèle à copier pour pouvoir modifier les notes de votre Pokémon.\n"
      },
      "changeNotesPage": {
        "fieldTitle": "Modifier les notes d'un de vos Pokémon ",
        "fieldContent": "Utilisez cette commande pour modifier les notes d'un de vos Pokémon.```css\nnb!pokémon modifierNotes \n--Pokémon=X\n--Note1=\n--Note2=\n--Note3=\n--Note4=\n--Note5=\n--Note6=\n--Note7=\n--Note8=[Facultative selon le nombre de notes de base du Pokémon.\nLes notes de bases sont les notes qui apparaissent soulignées sur la fiche de votre Pokémon et ne sont pas modifiables.]```\n"
      },
      "values": {
        "fieldTitle": "Valeurs",
        "fieldContent": "```diff\nX = ID Du Pokémon;\n-[L'ID d'un Pokémon s'affiche à côté de son nom (+ surnom s'il a) lors d'un nb!pokémon voirMesPokémon]\n\nA = Capacité à (ré)apprendre au Pokémon;\n-[Saisir 'Oublier' effacera la capacité.]\n\nB = Surnom à donner au Pokémon;\n-[Saisir 'RetirerSurnom' ou le nom de l'espèce du Pokémon effacera le surnom. 15 caractères maximum.]```"
      }
    },
    "trainersPokémonAdmin": {
      "helpCommandTitle": "Liste des commandes __ADMIN__ concernant la partie **Pokémon des Dresseurs**",
      "seeAllPokémonPage": {
        "fieldTitle": "Voir la liste des Pokémon des joueurs",
        "fieldContent": "Utilisez cette commande pour obtenir la liste de tous les Pokémon des joueurs.```css\nnb!pokémon checkAllPokémon```"
      },
      "seePokémonPage": {
        "fieldTitle": "Voir la fiche d'un Pokémon d'un joueur",
        "fieldContent": "Utilisez cette commande pour voir la fiche d'un Pokémon d'un joueur en particulier.```css\nnb!pokémon checkPokémonOfPlayer X Y```"
      },
      "addLevelPage": {
        "fieldTitle": "Augmenter les niveaux des Pokémon",
        "fieldContent": "Utilisez cette commande pour augmenter le niveau des Pokémon des joueurs.\n```css\nnb!pokémon addLevel \n--Niv20=A\n--Niv40=A\n--Niv60=A\n--Niv80=A\n--Niv100=A```"
      },
      "addFriendshipPage": {
        "fieldTitle": "Augmenter l'amitié des Pokémon",
        "fieldContent": "Utilisez cette commande pour augmenter l'amitié des Pokémon des joueurs. Le bonheur peut augmenter de 1, 2, ou ne pas augmenter.\n(Il peut augmenter de 2, 4 ou ne pas augmenter si le Pokémon est contenu dans une Luxe Ball.)```css\nnb!pokémon addFriendship```"
      },
      "givePokémonToPlayerPage": {
        "fieldTitle": "Donner un Pokémon à un joueur",
        "fieldContent": "Utilisez cette commande pour donner directement un Pokémon spécifique à un joueur. ```css\nnb!pokémon givePokémonToPlayer \n--IDJoueur=X\n--IDPokémon=Y\n--Level=A\n--Ball=B```"
      }      ,
      "changeMovePage": {
        "fieldTitle": "Modifier les capacités d'un Pokémon d'un joueur",
        "fieldContent": "Utilisez cette commande pour modifer les capacités d'un Pokémon.```css\nnb!pokémon changeMove \n--IDJoueur=X\n--IDPokémon=Y\n--Capacité1=C\n--Capacité2=C\n--Capacité3=C\n--Capacité4=C```"
      },
      "changeNicknamePage": {
        "fieldTitle": "Modifier le surnom d'un Pokémon d'un joueur",
        "fieldContent": "Utilisez cette commande pour renommer un Pokémon.```css\nnb!pokémon changeNickname \n--IDJoueur=X\n--IDPokémon=Y\n--Surnom=D```"
      },
      "values": {
        "fieldTitle": "Valeurs",
        "fieldContent": "```diff\nX = ID du Joueur;\n\nY = ID Du Pokémon;\n-[L'ID d'un Pokémon s'affiche à côté de son nom (+ surnom s'il a) lors d'un nb!pokémon voirMesPokémon]\n\nC = Capacité à (ré)apprendre au Pokémon;\n-[Saisir 'Oublier' effacera la capacité.]\n\nD = Surnom à donner au Pokémon;\n-[Saisir 'RetirerSurnom' ou le nom de l'espèce du Pokémon effacera le surnom. 15 caractères maximum.]```"
      }
    },
    "calendar": {
      "helpCommandTitle": "Liste des commandes concernant la partie **Calendrier**",
      "viewActualDate": {
        "fieldTitle": "Voir la date d'aujourd'hui (In-JDR)",
        "fieldContent": "```nb!calendrier jourActuel```"
      },
      "viewDateEvents": {
        "fieldTitle": "Voir les évènements d'un jour",
        "fieldContent": "```nb!calendrier voirJour XX/YY/ZZZZ```"
      },
      "viewMonthDays": {
        "fieldTitle": "Voir les jours d'un mois",
        "fieldContent": "```nb!calendrier voirMois YY/ZZZZ```"
      },
      "changeDay": {
        "fieldTitle": "Changer de jour",
        "fieldContent": "```css\nnb!calendrier définirJour \n--Date=XX/YY/ZZZZ\n--Type=A [Facultatif]```"
      },
      "addEvent": {
        "fieldTitle": "Ajouter un évènement à une date précise",
        "fieldContent": "```css\nnb!calendrier ajoutEvenement \n--Date=XX/YY/ZZZZ\n--Titre=B\n--Description=C\n--Criticité=D```"
      },
      "addPeriod": {
        "fieldTitle": "Permet d'ajouter une période de dates dans le calendrier.",
        "fieldContent": "```css\nnb!calendrier ajoutPériode\n--Début=XX/YY/ZZZZ\n--Fin=XX/YY/ZZZZ\n--Type=A\n--Titre=B\n--Description=C\n--Criticité=D```"
      },
      "addEventPeriod": {
        "fieldTitle": "Permet d'ajouter une évènement sur une période de dates dans le calendrier.",
        "fieldContent": "```css\nnb!calendrier ajoutEvenementPériode\n--Début=XX/YY/ZZZZ\n--Fin=XX/YY/ZZZZ\n--Titre=B\n--Description=C\n--Criticité=D```"
      },
      "changeTypeDay": {
        "fieldTitle": "Changer le type de jour d'une date précise",
        "fieldContent": "```css\nnb!calendrier changerTypeJour \n--Date=XX/YY/ZZZZ\n--Type=A```"
      },
      "modifyDayCommand": {
        "fieldTitle": "Template pour changer les attributs d'un évènement d'un jour",
        "fieldContent": "```css\nnb!calendrier modifierEvenementTemplate \n--Date=XX/YY/ZZZZ\n--Id=E```"
      },
      "modifyOrderCommand": {
        "fieldTitle": "Template pour changer l'ordre des évènements d'un jour",
        "fieldContent": "```css\nnb!calendrier modifierOrdreTemplate XX/YY/ZZZZ```"
      },
      "values": {
        "fieldTitle": "Valeurs",
        "fieldContent": "```css\n[Tous]\nXX = Jour, entre 1 et 30 ou 31.\nYY = Mois, entre 1 et 12\nZZZZ = Année\nA = Type de jour:\n- 1 = Séance\n- 2 = Inter-Séance\n- 3 = Inter-Saison\n- 4 = Évènement\n- 5 = Interséance+Évènement\n- 6 = Séance+Évènement\n- 7 = Séance+Interséance\n- 8 = TODO\nB = Titre de l'évènement.\nC = Description de l'évènement.\nD = Criticité de l'évènement (allant de 1 à 5, 5 étant le plus critique et 1 le moins critique).\nE = Numéro d'id de l'évènement.```"
      }
    },
    "trainers": {
      "helpCommandTitle": "Liste des commandes concernant la partie **Dresseur**",
      "generateByClass": {
        "fieldTitle": "Générer un dresseur selon sa classe",
        "fieldContent": "```css\nnb!dresseur générer \n--Type=A\n--Pokémon=B\n--Classe=C\n--Avancée=D\n--Catégorie=E```"
      },
      "generateByBiome": {
        "fieldTitle": "Générer un dresseur selon un biome",
        "fieldContent": "```css\nnb!dresseur générerParBiome \n--Biome=F\n--Pokémon=B\n--Classe=C\n--Avancée=D\n--Catégorie=E```"
      },
      "values": {
        "fieldTitle": "Valeurs",
        "fieldContent": "```css\nA: Liste des dresseurs;\n[trouvable à 'nb!dresseur liste']\n\nB: Min: 1 Max: 6 ou 3 si Photographe;\n[adaptation automatique selon 'C']\n\nC: Coordinateur, Photographe, Dresseur;\n[Dresseur si vide ou invalide]\n\nD: Nombre de 0 à 8;\n[Badge, Écrin, Rubans, Médaille, adaptation selon 'C']\n\nE: Masters ou Normal;\n[Normal si vide ou invalide]\n\nF: Nom d'un biome;\n\n```"
      },
      "memoryDex": {
        "fieldTitle": "Voir la liste des précédents dresseurs affrontés",
        "fieldContent": "```css\nnb!dresseur memoryDex```"
      },
      "viewPastTrainers": {
        "fieldTitle": "Voir les informations d'un dresseur spécifique",
        "fieldContent": "```css\nnb!dresseur voirDresseur [ID du dresseur]```"
      }

    }
  },
  "logs": {
    "commandComplement": "\nComplément de commande: \n",
    "requestOf": "Requête de",
    "informationLog": "Log informations",
    "fun": {
      "slur": "a insulté le Nigobot."
    },
    "bot": {
      "ping": "a ping le Nigobot.",
      "help": "a demandé à afficher l'aide du Nigobot.",
      "lore": "a demandé à afficher les liens de lore."
    },
    "biome": {
      "help": "a demandé à afficher l'aide de la partie biome.",
      "showAll": "a demandé à afficher l'ensemble des biomes.",
      "showOne": " a demandé à afficher les informations d'un biome."
    },
    "dice": {
      "help": "a demandé à afficher l'aide de la partie Dé."
    },
    "system": {
      "help": "a demandé à afficher l'aide des commandes admin.",
      "addPlayer": "a ajouté un utilisateur.",
      "removePlayer": "a supprimé un utilisateur.",
      "initializeMoney": "a initialisé le portemonnaie de joueurs.",
      "startDatabases": "a initialisé les bases de données.",
      "dump": "a dump les données dynamiques.",
      "removeAllPlayers": "a dump les données des joueurs et les a réinitialisées.",
      "addLogChannelId": "a ajouter le addLogChannelId d'un utilisateur.",
      "setupEmojiServer1": "a uploader la première partie des émojis nécéssaire au Nigobot.",
      "setupEmojiServer2": "a uploader la seconde partie des émojis nécéssaire au Nigobot.",
      "setupEmojiServer3": "a uploader la troisième partie des émojis nécéssaire au Nigobot.",
      "setupEmojiServer4": "a uploader la quatrième partie des émojis nécéssaire au Nigobot.",
      "setupEmojiServer5": "a uploader la cinquième partie des émojis nécéssaire au Nigobot.",
      "setupEmojiServer6": "a uploader la dernière partie des émojis nécéssaire au Nigobot.",
      "deleteAllEmojiInServer": "a supprimer tous les emojis d'un serveur Discord."
    },
    "item": {
      "help": "a demandé à afficher l'aide de la partie Objet.",
      "categories": "a demandé à afficher les catégories de la partie objet.",
      "itemInfo": "a demandé à afficher l'information d'un objet.",
      "categoryInfo": "a demandé à afficher l'information d'une catégorie d'objet.",
      "subCategoryInfo": "a demandé à afficher l'information d'une sous catégorie d'objet."
    },
    "player": {
      "help": "a demandé à afficher l'aide de la partie Joueur.",
      "throwStats": "a afficher ses statistiques de lancer.",
      "money": {
        "changeMoney": "a changer l'argent d'un utilisateur.",
        "seeMoney": "a demandé à afficher son argent disponible."
      }
    },
    "craft": {
      "help": "a demandé à afficher l'aide de la partie Fabrication.",
      "recipeInfo": "a demandé à afficher l'information d'une recette.",
      "creationTemplate": "a demandé à afficher le template de fabrication d'objets.",
      "discoveredRecipes": "a demandé à afficher les recettes découvertes."
    },
    "berry": {
      "help": "a demandé à afficher l'aide de la partie Baie.",
      "berryInfo": "a demandé à afficher l'information d'une Baie.",
      "mixTemplate": "a demandé à afficher le template de mixage de Baie."
    },
    "pokémon": {
      "help": "a demandé à afficher l'aide de la partie Pokémon.",
      "trainersHelp": "a demandé à afficher l'aide de la partie Pokémon des joueurs.",
      "trainersHelpAdmin": "a demandé à afficher l'aide admin de la partie Pokémon des joueurs.",
      "seePokemon": "a demandé à voir l'un de ses Pokémon.",
      "seePokémonPlayer": "a demandé à voir ses Pokémon.",
      "checkAllPokémon": "a demandé à voir l'ensemble des Pokémon des joueurs.",
      "givePokémonToPlayer": "a attribuer un Pokémon à un joueur.",
      "changeNickname": "a changer le surnom d'un Pokémon.",
      "changeMove": "a changer les attaques d'un Pokémon.",
      "pokémonInfo": "a demandé à afficher l'information d'un Pokémon.",
      "pokémonNotes": "a modifié les notes d'un de ses Pokémon.",
      "pokemonLevelorFriendship": "a modifier les niveaux ou l'amitié des Pokémon du groupe.",
      "evolveOneInto": " a fait évoluer un Pokémon."
    },
    "inventory": {
      "help": "a demandé à afficher l'aide de la partie Joueur.",
      "seeFoundItem": "a afficher ses objets trouvés.",
      "keepItem": " a garder un/des objet(s).",
      "sellItem": " a vendu un/des objet(s).",
      "sellAllItem": " a vendu tous ses objets trouvés.",
      "estimateAllItem": " a estimé tous ses objets trouvés."
    },
    "calendar": {
      "help": "a demandé à afficher l'aide de la partie Calendrier.",
      "modifyDateTemplate": "a demandé à afficher la commande pour modifier une journée.",
      "viewDate": "a demandé à voir une date sur le Calendrier.",
      "viewMonth": "a demandé à voir un mois sur le Calendrier.",
      "viewActualDay": "a demandé à voir le jour in JDR.",
      "defineDay": "a redéfini le jour actuel in JDR.",
      "addEvent": "a ajouter un évènement dans le calendrier.",
      "modifyOrderTemplate": "a demandé à afficher la commande pour modifier l'ordre des évènements d'un jour.",
      "modifyOrder": "a demandé à modifier l'ordre des évènements d'un jour."
    },
    "trainers": {
      "help": "a demandé à afficher l'aide de la partie Dresseurs.",
      "helpPast": "a demandé à afficher l'aide sur les Dresseurs précédents.",
      "generate": "a généré un dresseur",
      "list": "a demandé à voir la liste des dresseurs possibles."
    }
  }
}