{
    "traits": {
        "commun": [
            {
                "trait": "Adore manger.",
                "weight": 2
            },
            {
                "trait": "Fier de sa puissance.",
                "weight": 2
            },
            {
                "trait": "Corps robuste.",
                "weight": 2
            },
            {
                "trait": "Extrêmement curieux.",
                "weight": 2
            },
            {
                "trait": "Très volontaire.",
                "weight": 2
            },
            {
                "trait": "Aime courir.",
                "weight": 2
            },
            {
                "trait": "S'assoupit souvent.",
                "weight": 2
            },
            {
                "trait": "Aime se démener.",
                "weight": 2
            },
            {
                "trait": "Sait encaisser les coups.",
                "weight": 2
            },
            {
                "trait": "Coquin.",
                "weight": 2
            },
            {
                "trait": "Un peu vaniteux.",
                "weight": 2
            },
            {
                "trait": "Attentif aux sons.",
                "weight": 2
            },
            {
                "trait": "Dort beaucoup.",
                "weight": 2
            },
            {
                "trait": "Un peu coléreux.",
                "weight": 2
            },
            {
                "trait": "Très obstiné.",
                "weight": 2
            },
            {
                "trait": "Très astucieux.",
                "weight": 2
            },
            {
                "trait": "Esprit rebelle.",
                "weight": 2
            },
            {
                "trait": "Bête et impulsif.",
                "weight": 2
            },
            {
                "trait": "Éparpille les choses.",
                "weight": 2
            },
            {
                "trait": "Aime combattre.",
                "weight": 2
            },
            {
                "trait": "Bonne endurance.",
                "weight": 2
            },
            {
                "trait": "Souvent dans la lune.",
                "weight": 2
            },
            {
                "trait": "A horreur de perdre.",
                "weight": 2
            },
            {
                "trait": "Aime faire le pitre.",
                "weight": 2
            },
            {
                "trait": "Aime se détendre.",
                "weight": 2
            },
            {
                "trait": "S'emporte facilement.",
                "weight": 2
            },
            {
                "trait": "Persévérant.",
                "weight": 2
            },
            {
                "trait": "Très particulier.",
                "weight": 2
            },
            {
                "trait": "Assez entêté.",
                "weight": 2
            },
            {
                "trait": "Fuit rapidement.",
                "weight": 2
            },
            {
                "trait": "Capricieux.",
                "weight": 1
            },
            {
                "trait": "Particulièrement chaotique.",
                "weight": 1
            },
            {
                "trait": "Prétentieux.",
                "weight": 1
            },
            {
                "trait": "Bonne gestion du stress.",
                "weight": 1
            },
            {
                "trait": "Est vigilant à tous les instants.",
                "weight": 1
            },
            {
                "trait": "Particulièrement sociable.",
                "weight": 1
            },
            {
                "trait": "Très patient.",
                "weight": 1
            },
            {
                "trait": "Semble fou.",
                "weight": 1
            },
            {
                "trait": "A des goûts raffinés.",
                "weight": 1
            },
            {
                "trait": "Est rempli de gentillesse.",
                "weight": 1
            },
            {
                "trait": "Paranoïaque.",
                "weight": 1
            },
            {
                "trait": "Fouineur.",
                "weight": 1
            }
        ],
        "uncommun": [
            {
                "trait": "Aime les Pokémon de type [TYPE].",
                "weight": 1
            },
            {
                "trait": "Déteste les Pokémon de type [TYPE].",
                "weight": 1
            },
            {
                "trait": "N'aime pas trop les Pokémon de type [TYPE].",
                "weight": 1
            },
            {
                "trait": "A peur des Pokémon de type [TYPE].",
                "weight": 1
            },
            {
                "trait": "A peur du vide.",
                "weight": 2
            },
            {
                "trait": "Prend peur au moindre bruit.",
                "weight": 2
            },
            {
                "trait": "[FEEL]es humains.",
                "weight": 4,
                "feel": ["Aime l", "Déteste l", "N'aime pas trop l", "A peur d"]
            },
            {
                "trait": "Éternue souvent.",
                "weight": 2
            },
            {
                "trait": "N'aime pas être mouillé.",
                "weight": 2
            },
            {
                "trait": "N'aime pas être touché.",
                "weight": 2
            },
            {
                "trait": "Prend facilement peur.",
                "weight": 2
            },
            {
                "trait": "Préfère être seul.",
                "weight": 2
            },
            {
                "trait": "Préfère être en groupe.",
                "weight": 2
            },
            {
                "trait": "Juge facilement.",
                "weight": 2
            },
            {
                "trait": "Adore les câlins.",
                "weight": 2
            },
            {
                "trait": "Maladroit",
                "weight": 2
            },
            {
                "trait": "Aime faire du bruit.",
                "weight": 2
            },
            {
                "trait": "N'a pas le sens de l'orientation.",
                "weight": 2
            },
            {
                "trait": "Aime quand [WEATHER].",
                "weight": 1
            },
            {
                "trait": "Déteste quand [WEATHER].",
                "weight": 1
            },
            {
                "trait": "A peur quand [WEATHER].",
                "weight": 1
            },
            {
                "trait": "Mange [NUMBER] Pokéblocs par jour",
                "weight": 3
            },
            {
                "trait": "Déteste [CLASS]",
                "weight": 2
            },
            {
                "trait": "Aime la couleur [COLOR].",
                "weight": 1
            },
            {
                "trait": "Déteste la couleur [COLOR].",
                "weight": 1
            },
            {
                "trait": "Vif.",
                "weight": 3
            }
        ],
        "rare": [
            {
                "trait": "Manque un œil.",
                "weight": 3
            },            {
                "trait": "Daltonien.",
                "weight": 3
            },
            {
                "trait": "N'a pas de dent.",
                "weight": 2
            },
            {
                "trait": "Muet.",
                "weight": 3
            },
            {
                "trait": "Malvoyant.",
                "weight": 1
            },
            {
                "trait": "Malentendant.",
                "weight": 1
            },
            {
                "trait": "[FEEL]es ultra humains.",
                "weight": 6,
                "feel": ["Aime l", "Déteste l", "N'aime pas trop l", "A peur d"]
            },
            {
                "trait": "A une excellente vision.",
                "weight": 3
            },
            {
                "trait": "A une ouïe surdéveloppée.",
                "weight": 3
            }
        ],
        "veryRare": [
            {
                "trait": "Aveugle",
                "weight": 2
            },
            {
                "trait": "Sourd",
                "weight": 2
            },
            {
                "trait": "Albinos",
                "weight": 1
            },
            {
                "trait": "Mélanique",
                "weight": 1
            }
        ]
    },
    "parameters": {
        "type": [
            "Plante",
            "Feu",
            "Eau",
            "Acier",
            "Dragon",
            "Électrik",
            "Fée",
            "Glace",
            "Insecte",
            "Normal",
            "Poison",
            "Psy",
            "Roche",
            "Sol",
            "Spectre",
            "Ténèbres",
            "Vol",
            "Fungus"
          ],
        "weather": [
           "il fait ensoleillé",
           "il y a un soleil de plomb",
           "il fait nuageux",
           "il fait très couvert",
           "il y a du brouillard",
           "il pleut",
           "il pleut beaucoup",
           "il y a un orage",
           "il grêle",
           "il neige",
           "il y a du vent",
           "il y a un cyclone",
           "il pleut de l'acide",
           "il y a un phénomène de ciel noir",
           "il y a un blizzard",
           "une tempête de sable est présente",
           "le ciel est rempli d'étoiles filantes"
          ],
        "color": [
            "rouge",
            "bleue",
            "jaune",
            "verte",
            "orange",
            "cyan",
            "magenta",
            "violette",
            "grise",
            "noire",
            "blanche",
            "argentée",
            "dorée",
            "azure",
            "turquoise",
            "indigo",
            "carmin"
          ],
        "classes": [
            "les Dresseurs",
            "les Rangers",
            "les Coordinateurs"
        ]
    }
}