{
  "trainers": [
    {
      "className": "Aromathérapeute",
      "ageRange": {
        "min": 16,
        "max": 30
      },
      "biome": [
        {
          "name": "Forêt"
        },
        {
          "name": "Forêt humide"
        },
        {
          "name": "Jungle"
        },
        {
          "name": "Bambouseraie"
        },
        {
          "name": "Mangrove"
        },
        {
          "name": "Champs"
        },
        {
          "name": "Toundra"
        },
        {
          "name": "Plaine"
        },
        {
          "name": "Plaine fleurie"
        },
        {
          "name": "Oasis"
        },
        {
          "name": "Rivière"
        },
        {
          "name": "Lac"
        },
        {
          "name": "Cimetière"
        },
        {
          "name": "Ville moyenne"
        },
        {
          "name": "Village"
        }
      ],
      "predilectionType": [
        {
          "name": "Plante"
        }
      ],
      "possibleFaction": [
        {
          "name": "Rose"
        },
        {
          "name": "Vert"
        },
        {
          "name": "Marron"
        }
      ],
      "money": [
        {
          "moneyValue": "Int - Argent donné"
        }
      ],
      "miscInformations": {
        "male": false,
        "female": true,
        "maleMugshot": "Aromathérapeute",
        "femaleMugshot": "Aromathérapeute"
      }
    },
    {
      "className": "Gentleman",
      "ageRange": {
        "min": 49,
        "max": 76
      },
      "biome": [
        {
          "name": "Forêt"
        },
        {
          "name": "Forêt humide"
        },
        {
          "name": "Jungle"
        },
        {
          "name": "Bambouseraie"
        },
        {
          "name": "Mangrove"
        },
        {
          "name": "Champs"
        },
        {
          "name": "Toundra"
        },
        {
          "name": "Plaine"
        },
        {
          "name": "Plaine fleurie"
        },
        {
          "name": "Oasis"
        },
        {
          "name": "Rivière"
        },
        {
          "name": "Lac"
        },
        {
          "name": "Cimetière"
        },
        {
          "name": "Ville moyenne"
        },
        {
          "name": "Village"
        }
      ],
      "predilectionType": [
        {
          "name": "Aucun"
        }
      ],
      "possibleFaction": [
        {
          "name": "Bleue"
        },
        {
          "name": "Verte"
        },
        {
          "name": "Rouge"
        }
      ],
      "money": [
        {
          "moneyValue": "Int - Argent donné"
        }
      ],
      "miscInformations": {
        "male": true,
        "female": false,
        "maleMugshot": "Gentleman",
        "femaleMugshot": "Gentleman"
        
      }
    },
    {
      "className": "Artiste",
      "ageRange": {
        "min": 16,
        "max": 54
      },
      "biome": [],
      "predilectionType": [
        {
          "name": "Aucun"
        }
      ],
      "possibleFaction": [
        {
          "name": "Bleue"
        },
        {
          "name": "Rose"
        },
        {
          "name": "Verte"
        },
        {
          "name": "Marron"
        }
      ],
      "money": [
        {
          "moneyValue": "Int - Argent donné"
        }
      ],
      "miscInformations": {
        "male": true,
        "female": true,
        "maleMugshot": "Artiste (M)",
        "femaleMugshot": "Artiste (F)"
      }
    },
    {
      "className": "Canon",
      "ageRange": {
        "min": 22,
        "max": 45
      },
      "biome": [],
      "predilectionType": [
        {
          "name": "Poison"
        },
        {
          "name": "Psy"
        },
        {
          "name": "Fée"
        }
      ],
      "possibleFaction": [
        {
          "name": "Rose"
        },
        {
          "name": "Verte"
        },
        {
          "name": "Rouge"
        },
        {
          "name": "Jaune"
        }
      ],
      "money": [
        {
          "moneyValue": "Int - Argent donné"
        }
      ],
      "miscInformations": {
        "male": false,
        "female": true,
        "maleMugshot": "Canon",
        "femaleMugshot": "Canon"
      }
    },
    {
      "className": "Collectionneur",
      "ageRange": {
        "min": 16,
        "max": 32
      },
      "biome": [],
      "predilectionType": [
        {
          "name": "Aucun"
        }
      ],
      "possibleFaction": [
        {
          "name": "Bleue"
        },
        {
          "name": "Jaune"
        },
        {
          "name": "Rose"
        }
      ],
      "money": [
        {
          "moneyValue": "Int - Argent donné"
        }
      ],
      "miscInformations": {
        "male": true,
        "female": false,
        "maleMugshot": "Collectionneur",
        "femaleMugshot": "Collectionneur"
      }
    },
    {
      "className": "Combattante",
      "ageRange": {
        "min": 16,
        "max": 41
      },
      "biome": [],
      "predilectionType": [
        {
          "name": "Combat"
        },
        {
          "name": "Roche"
        }
      ],
      "possibleFaction": [
        {
          "name": "Rouge"
        },
        {
          "name": "Jaune"
        },
        {
          "name": "Verte"
        },
        {
          "name": "Marron"
        }
      ],
      "money": [
        {
          "moneyValue": "Int - Argent donné"
        }
      ],
      "miscInformations": {
        "male": false,
        "female": true,
        "maleMugshot": "Combattante",
        "femaleMugshot": "Combattante"
      }
    }, 
    {
      "className": "Cuisinier",
      "ageRange": {
        "min": 26,
        "max": 64
      },
      "biome": [],
      "predilectionType": [
        {
          "name": "Eau"
        },
        {
          "name": "Feu"
        },
        {
          "name": "Plante"
        }
      ],
      "possibleFaction": [
        {
          "name": "Jaune"
        },
        {
          "name": "Verte"
        },
        {
          "name": "Marron"
        }
      ],
      "money": [
        {
          "moneyValue": "Int - Argent donné"
        }
      ],
      "miscInformations": {
        "male": true,
        "female": false,
        "maleMugshot": "Cuisinier",
        "femaleMugshot": "Cuisinier"
      }
    },
    {
      "className": "Cycliste",
      "ageRange": {
        "min": 16,
        "max": 54
      },
      "biome": [
      ],
      "predilectionType": [
        {
          "name": "Aucun"
        }
      ],
      "possibleFaction": [
        {
          "name": "Bleue"
        },
        {
          "name": "Marron"
        },
        {
          "name": "Rouge"
        }
      ],
      "money": [
        {
          "moneyValue": "Int - Argent donné"
        }
      ],
      "miscInformations": {
        "male": true,
        "female": false,
        "maleMugshot": "Cycliste",
        "femaleMugshot": "Cycliste"
      }
    },
    {
      "className": "Dracologue",
      "ageRange": {
        "min": 28,
        "max": 61
      },
      "biome": [
      ],
      "predilectionType": [
        {
          "name": "Dragon"
        }
      ],
      "possibleFaction": [
        {
          "name": "Rouge"
        },
        {
          "name": "Bleue"
        },
        {
          "name": "Jaune"
        }
      ],
      "money": [
        {
          "moneyValue": "Int - Argent donné"
        }
      ],
      "miscInformations": {
        "male": true,
        "female": false,
        "maleMugshot": "Dracologue",
        "femaleMugshot": "Dracologue"
      }
    },
    {
      "className": "Dresseur en Herbe",
      "ageRange": {
        "min": 16,
        "max": 21
      },
      "biome": [
      ],
      "predilectionType": [
        {
          "name": "Aucun"
        }
      ],
      "possibleFaction": [
        {
          "name": "Verte"
        },        
        {
          "name": "Bleue"
        },
        {
          "name": "Rose"
        }
      ],
      "money": [
        {
          "moneyValue": "Int - Argent donné"
        }
      ],
      "miscInformations": {
        "male": true,
        "female": false,
        "maleMugshot": "Dresseur en Herbe",
        "femaleMugshot": "Dresseur en Herbe"
      }
    },
    {
      "className": "Dresseuse en Herbe",
      "ageRange": {
        "min": 16,
        "max": 21
      },
      "biome": [
      ],
      "predilectionType": [
        {
          "name": "Aucun"
        }
      ],
      "possibleFaction": [
        {
          "name": "Verte"
        },        
        {
          "name": "Bleue"
        },
        {
          "name": "Rose"
        }
      ],
      "money": [
        {
          "moneyValue": "Int - Argent donné"
        }
      ],
      "miscInformations": {
        "male": false,
        "female": true,
        "maleMugshot": "Dresseuse en Herbe",
        "femaleMugshot": "Dresseuse en Herbe"
      }
    },
    {
      "className": "Éleveur",
      "ageRange": {
        "min": 22,
        "max": 49
      },
      "biome": [
      ],
      "predilectionType": [
        {
          "name": "Aucun"
        }
      ],
      "possibleFaction": [
        {
          "name": "Verte"
        },
        {
          "name": "Rose"
        }
      ],
      "money": [
        {
          "moneyValue": "Int - Argent donné"
        }
      ],
      "miscInformations": {
        "male": true,
        "female": false,
        "maleMugshot": "Éleveur",
        "femaleMugshot": "Éleveur"
      }
    },
    {
      "className": "Éleveuse",
      "ageRange": {
        "min": 22,
        "max": 49
      },
      "biome": [
      ],
      "predilectionType": [
        {
          "name": "Aucun"
        }
      ],
      "possibleFaction": [
        {
          "name": "Verte"
        },
        {
          "name": "Rose"
        }
      ],
      "money": [
        {
          "moneyValue": "Int - Argent donné"
        }
      ],
      "miscInformations": {
        "male": false,
        "female": true,
        "maleMugshot": "Éleveuse",
        "femaleMugshot": "Éleveuse"
      }
    },
    {
      "className": "Fille en Kimono",
      "ageRange": {
        "min": 18,
        "max": 61
      },
      "biome": [
      ],
      "predilectionType": [
        {
          "name": "Fée"
        },
        {
          "name": "Normal"
        },
        {
          "name": "Dragon"
        }
      ],
      "possibleFaction": [
        {
          "name": "Rose"
        },
        {
          "name": "Rouge"
        },
        {
          "name": "Bleue"
        },
        {
          "name": "Verte"
        },
        {
          "name": "Jaune"
        },
        {
          "name": "Marron"
        }
      ],
      "money": [
        {
          "moneyValue": "Int - Argent donné"
        }
      ],
      "miscInformations": {
        "male": false,
        "female": true,
        "maleMugshot": "Fille en Kimono",
        "femaleMugshot": "Fille en Kimono"
      }
    },
    {
      "className": "Fillette",
      "ageRange": {
        "min": 16,
        "max": 24
      },
      "biome": [
      ],
      "predilectionType": [
        {
          "name": "Aucun"
        }
      ],
      "possibleFaction": [
        {
          "name": "Rose"
        },
        {
          "name": "Rouge"
        },
        {
          "name": "Jaune"
        }
      ],
      "money": [
        {
          "moneyValue": "Int - Argent donné"
        }
      ],
      "miscInformations": {
        "male": false,
        "female": true,
        "maleMugshot": "Fillette",
        "femaleMugshot": "Fillette"
      }
    },
    {
      "className": "Gamin",
      "ageRange": {
        "min": 16,
        "max": 24
      },
      "biome": [
      ],
      "predilectionType": [
        {
          "name": "Aucun"
        }
      ],
      "possibleFaction": [
        {
          "name": "Rouge"
        },
        {
          "name": "Rose"
        },
        {
          "name": "Marron"
        }
      ],
      "money": [
        {
          "moneyValue": "Int - Argent donné"
        }
      ],
      "miscInformations": {
        "male": true,
        "female": false,
        "maleMugshot": "Gamin",
        "femaleMugshot": "Gamin"
      }
    },
    {
      "className": "Gouvernante",
      "ageRange": {
        "min": 28,
        "max": 55
      },
      "biome": [
      ],
      "predilectionType": [
        {
          "name": "Normal"
        },
        {
          "name": "Feu"
        },
        {
          "name": "Acier"
        }
      ],
      "possibleFaction": [
        {
          "name": "Verte"
        },
        {
          "name": "Marron"
        },
        {
          "name": "Bleue"
        }
      ],
      "money": [
        {
          "moneyValue": "Int - Argent donné"
        }
      ],
      "miscInformations": {
        "male": false,
        "female": true,
        "maleMugshot": "Gouvernante",
        "femaleMugshot": "Gouvernante"
      }
    },
    {
      "className": "Guitariste",
      "ageRange": {
        "min": 16,
        "max": 44
      },
      "biome": [
      ],
      "predilectionType": [
        {
          "name": "Électrik"
        },
        {
          "name": "Acier"
        },
        {
          "name": "Ténèbres"
        },
        {
          "name": "Feu"
        }
      ],
      "possibleFaction": [
        {
          "name": "Rouge"
        },
        {
          "name": "Rose"
        },
         {
           "name": "Marron"
         }
      ],
      "money": [
        {
          "moneyValue": "Int - Argent donné"
        }
      ],
      "miscInformations": {
        "male": true,
        "female": false,
        "maleMugshot": "Guitariste",
        "femaleMugshot": "Guitariste"
      }
    },
    {
      "className": "Jardinier",
      "ageRange": {
        "min": 32,
        "max": 58
      },
      "biome": [
      ],
      "predilectionType": [
        {
          "name": "Plante"
        },
        {
          "name": "Acier"
        }
      ],
      "possibleFaction": [
        {
          "name": "Verte"
        },
        {
          "name": "Bleue"
        },
        {
          "name": "Marron"
        }
      ],
      "money": [
        {
          "moneyValue": "Int - Argent donné"
        }
      ],
      "miscInformations": {
        "male": true,
        "female": false,
        "maleMugshot": "Jardinier",
        "femaleMugshot": "Jardinier"
      }
    },
    {
      "className": "Joggeur",
      "ageRange": {
        "min": 16,
        "max": 54
      },
      "biome": [
      ],
      "predilectionType": [
        {
          "name": "Aucun"
        }
      ],
      "possibleFaction": [
        {
          "name": "Bleue"
        },
        {
          "name": "Marron"
        },
        {
          "name": "Rouge"
        }
      ],
      "money": [
        {
          "moneyValue": "Int - Argent donné"
        }
      ],
      "miscInformations": {
        "male": true,
        "female": false,
        "maleMugshot": "Joggeur",
        "femaleMugshot": "Joggeur"
      }
    },
    {
      "className": "Karatéka",
      "ageRange": {
        "min": 18,
        "max": 48
      },
      "biome": [
      ],
      "predilectionType": [
        {
          "name": "Combat"
        },
        {
          "name": "Roche"
        }
      ],
      "possibleFaction": [
        {
          "name": "Rouge"
        },
        {
          "name": "Bleue"
        },
        {
          "name": "Marron"
        }
      ],
      "money": [
        {
          "moneyValue": "Int - Argent donné"
        }
      ],
      "miscInformations": {
        "male": true,
        "female": false,
        "maleMugshot": "Karatéka",
        "femaleMugshot": "Karatéka"
      }
    },
    {
      "className": "Kinésiste",
      "ageRange": {
        "min": 18,
        "max": 32
      },
      "biome": [
      ],
      "predilectionType": [
        {
          "name": "Psy"
        },
        {
          "name": "Spectre"
        }
      ],
      "possibleFaction": [
        {
          "name": "Verte"
        },
        {
          "name": "Bleue"
        },
        {
          "name": "Marron"
        }
      ],
      "money": [
        {
          "moneyValue": "Int - Argent donné"
        }
      ],
      "miscInformations": {
        "male": true,
        "female": true,
        "maleMugshot": "Kinésiste",
        "femaleMugshot": "Kinésiste"
      }
    },
    {
      "className": "Mademoiselle",
      "ageRange": {
        "min": 16,
        "max": 30
      },
      "biome": [
      ],
      "predilectionType": [
        {
          "name": "Aucun"
        }
      ],
      "possibleFaction": [
        {
          "name": "Rose"
        },
        {
          "name": "Bleue"
        },
        {
          "name": "Verte"
        }
      ],
      "money": [
        {
          "moneyValue": "Int - Argent donné"
        }
      ],
      "miscInformations": {
        "male": false,
        "female": true,
        "maleMugshot": "Mademoiselle",
        "femaleMugshot": "Mademoiselle"
      }
    },
    {
      "className": "Majordome",
      "ageRange": {
        "min": 26,
        "max": 50
      },
      "biome": [
      ],
      "predilectionType": [
        {
          "name": "Aucun"
        }
      ],
      "possibleFaction": [
        {
          "name": "Bleue"
        },
        {
          "name": "Verte"
        },
        {
          "name": "Rouge"
        }
      ],
      "money": [
        {
          "moneyValue": "Int - Argent donné"
        }
      ],
      "miscInformations": {
        "male": true,
        "female": false,
        "maleMugshot": "Majordome",
        "femaleMugshot": "Majordome"
      }
    },
    {
      "className": "Marin",
      "ageRange": {
        "min": 25,
        "max": 55
      },
      "biome": [
      ],
      "predilectionType": [
        {
          "name": "Eau"
        },
        {
          "name": "Combat"
        }
      ],
      "possibleFaction": [
        {
          "name": "Rouge"
        },
        {
          "name": "Jaune"
        },
        {
          "name": "Rose"
        }
      ],
      "money": [
        {
          "moneyValue": "Int - Argent donné"
        }
      ],
      "miscInformations": {
        "male": true,
        "female": false,
        "maleMugshot": "Marin",
        "femaleMugshot": "Marin"
      }
    },
    {
      "className": "Mondaine",
      "ageRange": {
        "min": 49,
        "max": 76
      },
      "biome": [
      ],
      "predilectionType": [
        {
          "name": "Aucun"
        }
      ],
      "possibleFaction": [
        {
          "name": "Bleue"
        },
        {
          "name": "Verte"
        },
        {
          "name": "Rouge"
        }
      ],
      "money": [
        {
          "moneyValue": "Int - Argent donné"
        }
      ],
      "miscInformations": {
        "male": false,
        "female": true,
        "maleMugshot": "Mondaine",
        "femaleMugshot": "Mondaine"
      }
    },
    {
      "className": "Montagnard",
      "ageRange": {
        "min": 25,
        "max": 65
      },
      "biome": [
      ],
      "predilectionType": [
        {
          "name": "Roche"
        },
        {
          "name": "Sol"
        },
        {
          "name": "Combat"
        }
      ],
      "possibleFaction": [
        {
          "name": "Bleue"
        },
        {
          "name": "Jaune"
        },
        {
          "name": "Marron"
        },
        {
          "name": "Rose"
        }
      ],
      "money": [
        {
          "moneyValue": "Int - Argent donné"
        }
      ],
      "miscInformations": {
        "male": true,
        "female": false,
        "maleMugshot": "Montagnard",
        "femaleMugshot": "Montagnard"
      }
    },
    {
      "className": "Mystimaniac",
      "ageRange": {
        "min": 16,
        "max": 76
      },
      "biome": [
      ],
      "predilectionType": [
        {
          "name": "Spectre"
        },
        {
          "name": "Fée"
        }
      ],
      "possibleFaction": [
        {
          "name": "Marron"
        },
        {
          "name": "Rose"
        }
      ],
      "money": [
        {
          "moneyValue": "Int - Argent donné"
        }
      ],
      "miscInformations": {
        "male": false,
        "female": true,
        "maleMugshot": "Mystimaniac",
        "femaleMugshot": "Mystimaniac"
      }
    },
    {
      "className": "Nageur",
      "ageRange": {
        "min": 18,
        "max": 47
      },
      "biome": [
      ],
      "predilectionType": [
        {
          "name": "Eau"
        }
      ],
      "possibleFaction": [
        {
          "name": "Bleue"
        },
        {
          "name": "Rouge"
        },
        {
          "name": "Verte"
        },
        {
          "name": "Rose"
        }
      ],
      "money": [
        {
          "moneyValue": "Int - Argent donné"
        }
      ],
      "miscInformations": {
        "male": true,
        "female": false,
        "maleMugshot": "Nageur",
        "femaleMugshot": "Nageur"
      }
    },
    {
      "className": "Nageuse",
      "ageRange": {
        "min": 18,
        "max": 47
      },
      "biome": [
      ],
      "predilectionType": [
        {
          "name": "Eau"
        }
      ],
      "possibleFaction": [
        {
          "name": "Bleue"
        },
        {
          "name": "Rouge"
        },
        {
          "name": "Verte"
        },
        {
          "name": "Rose"
        }
      ],
      "money": [
        {
          "moneyValue": "Int - Argent donné"
        }
      ],
      "miscInformations": {
        "male": false,
        "female": true,
        "maleMugshot": "Nageuse",
        "femaleMugshot": "Nageuse"
      }
    },
    {
      "className": "Ornithologue",
      "ageRange": {
        "min": 16,
        "max": 55
      },
      "biome": [
      ],
      "predilectionType": [
        {
          "name": "Vol"
        }
      ],
      "possibleFaction": [
        {
          "name": "Verte"
        },
        {
          "name": "Jaune"
        },
        {
          "name": "Marron"
        },
        {
          "name": "Rouge"
        }
      ],
      "money": [
        {
          "moneyValue": "Int - Argent donné"
        }
      ],
      "miscInformations": {
        "male": true,
        "female": true,
        "maleMugshot": "Ornithologue",
        "femaleMugshot": "Ornithologue"
      }
    },
    {
      "className": "Ouvrier",
      "ageRange": {
        "min": 26,
        "max": 55
      },
      "biome": [
      ],
      "predilectionType": [
        {
          "name": "Sol"
        },
        {
          "name": "Acier"
        }
      ],
      "possibleFaction": [
        {
          "name": "Rouge"
        },
        {
          "name": "Verte"
        },
        {
          "name": "Marron"
        }
      ],
      "money": [
        {
          "moneyValue": "Int - Argent donné"
        }
      ],
      "miscInformations": {
        "male": true,
        "female": false,
        "maleMugshot": "Ouvrier",
        "femaleMugshot": "Ouvrier"
      }
    },
    {
      "className": "Parachutiste",
      "ageRange": {
        "min": 21,
        "max": 48
      },
      "biome": [
      ],
      "predilectionType": [
        {
          "name": "Vol"
        }
      ],
      "possibleFaction": [
        {
          "name": "Bleue"
        },
        {
          "name": "Rose"
        },
        {
          "name": "Verte"
        }
      ],
      "money": [
        {
          "moneyValue": "Int - Argent donné"
        }
      ],
      "miscInformations": {
        "male": true,
        "female": true,
        "maleMugshot": "Parachutiste (M)",
        "femaleMugshot": "Parachutiste (F)"
      }
    },
    {
      "className": "Parasoliste",
      "ageRange": {
        "min": 21,
        "max": 48
      },
      "biome": [
      ],
      "predilectionType": [
        {
          "name": "Eau"
        },
        {
          "name": "Sol"
        }
      ],
      "possibleFaction": [
        {
          "name": "Bleue"
        },
        {
          "name": "Rose"
        },
        {
          "name": "Rouge"
        }
      ],
      "money": [
        {
          "moneyValue": "Int - Argent donné"
        }
      ],
      "miscInformations": {
        "male": false,
        "female": true,
        "maleMugshot": "Parasoliste",
        "femaleMugshot": "Parasoliste"
      }
    },
    {
      "className": "Pêcheur",
      "ageRange": {
        "min": 26,
        "max": 65
      },
      "biome": [
      ],
      "predilectionType": [
        {
          "name": "Eau"
        }
      ],
      "possibleFaction": [
        {
          "name": "Marron"
        },
        {
          "name": "Verte"
        },
        {
          "name": "Rouge"
        }
      ],
      "money": [
        {
          "moneyValue": "Int - Argent donné"
        }
      ],
      "miscInformations": {
        "male": true,
        "female": false,
        "maleMugshot": "Pêcheur",
        "femaleMugshot": "Pêcheur"
      }
    },
    {
      "className": "Plongeur",
      "ageRange": {
        "min": 26,
        "max": 51
      },
      "biome": [
      ],
      "predilectionType": [
        {
          "name": "Eau"
        }
      ],
      "possibleFaction": [
        {
          "name": "Bleue"
        },
        {
          "name": "Rose"
        },
        {
          "name": "Rouge"
        }
      ],
      "money": [
        {
          "moneyValue": "Int - Argent donné"
        }
      ],
      "miscInformations": {
        "male": true,
        "female": false,
        "maleMugshot": "Plongeur",
        "femaleMugshot": "Plongeur"
      }
    },
    {
      "className": "Plongeuse",
      "ageRange": {
        "min": 26,
        "max": 51
      },
      "biome": [
      ],
      "predilectionType": [
        {
          "name": "Eau"
        }
      ],
      "possibleFaction": [
        {
          "name": "Bleue"
        },
        {
          "name": "Rose"
        },
        {
          "name": "Rouge"
        }
      ],
      "money": [
        {
          "moneyValue": "Int - Argent donné"
        }
      ],
      "miscInformations": {
        "male": false,
        "female": true,
        "maleMugshot": "Plongeuse",
        "femaleMugshot": "Plongeuse"
      }
    },
    {
      "className": "Pokéfan",
      "ageRange": {
        "min": 32,
        "max": 58
      },
      "biome": [
      ],
      "predilectionType": [
        {
          "name": "Aucun"
        }
      ],
      "possibleFaction": [
        {
          "name": "Rose"
        },
        {
          "name": "Verte"
        },
        {
          "name": "Rouge"
        }
      ],
      "money": [
        {
          "moneyValue": "Int - Argent donné"
        }
      ],
      "miscInformations": {
        "male": true,
        "female": true,
        "maleMugshot": "Pokéfan (M)",
        "femaleMugshot": "Pokéfan (F)"
      }
    },
    {
      "className": "Pokémaniac",
      "ageRange": {
        "min": 16,
        "max": 58
      },
      "biome": [
      ],
      "predilectionType": [
        {
          "name": "Aucun"
        }
      ],
      "possibleFaction": [
        {
          "name": "Rose"
        },
        {
          "name": "Marron"
        },
        {
          "name": "Rouge"
        }
      ],
      "money": [
        {
          "moneyValue": "Int - Argent donné"
        }
      ],
      "miscInformations": {
        "male": true,
        "female": false,
        "maleMugshot": "Pokémaniac",
        "femaleMugshot": "Pokémaniac"
      }
    },
    {
      "className": "Randonneur",
      "ageRange": {
        "min": 32,
        "max": 58
      },
      "biome": [
      ],
      "predilectionType": [
        {
          "name": "Normal"
        },
        {
          "name": "Électrik"
        },
        {
          "name": "Vol"
        },
        {
          "name": "Sol"
        }
      ],
      "possibleFaction": [
        {
          "name": "Rose"
        },
        {
          "name": "Bleue"
        },
        {
          "name": "Marron"
        }
      ],
      "money": [
        {
          "moneyValue": "Int - Argent donné"
        }
      ],
      "miscInformations": {
        "male": true,
        "female": false,
        "maleMugshot": "Randonneur",
        "femaleMugshot": "Randonneur"
      }
    },
    {
      "className": "Ranger",
      "ageRange": {
        "min": 18,
        "max": 55
      },
      "biome": [
      ],
      "predilectionType": [
        {
          "name": "Aucun"
        }
      ],
      "possibleFaction": [
        {
          "name": "Rose"
        },
        {
          "name": "Verte"
        },
        {
          "name": "Rouge"
        },
        {
          "name": "Bleue"
        },
        {
          "name": "Jaune"
        },
        {
          "name": "Marron"
        }
      ],
      "money": [
        {
          "moneyValue": "Int - Argent donné"
        }
      ],
      "miscInformations": {
        "male": true,
        "female": true,
        "maleMugshot": "Ranger Dresseur",
        "femaleMugshot": "Ranger Dresseuse"
      }
    },
    {
      "className": "Richard",
      "ageRange": {
        "min": 16,
        "max": 30
      },
      "biome": [
      ],
      "predilectionType": [
        {
          "name": "Aucun"
        }
      ],
      "possibleFaction": [
        {
          "name": "Rose"
        }
      ],
      "money": [
        {
          "moneyValue": "Int - Argent donné"
        }
      ],
      "miscInformations": {
        "male": true,
        "female": false,
        "maleMugshot": "Richard",
        "femaleMugshot": "Richard"
      }
    },
    {
      "className": "Roller Skater",
      "ageRange": {
        "min": 16,
        "max": 24
      },
      "biome": [
      ],
      "predilectionType": [
        {
          "name": "Aucun"
        }
      ],
      "possibleFaction": [
        {
          "name": "Jaune"
        },
        {
          "name": "Bleue"
        },
        {
          "name": "Rouge"
        }
      ],
      "money": [
        {
          "moneyValue": "Int - Argent donné"
        }
      ],
      "miscInformations": {
        "male": true,
        "female": true,
        "maleMugshot": "Roller Skatteur",
        "femaleMugshot": "Roller Skatteuse"
      }
    },
    {
      "className": "Ruinemaniac",
      "ageRange": {
        "min": 47,
        "max": 72
      },
      "biome": [
      ],
      "predilectionType": [
        {
          "name": "Roche"
        },
        {
          "name": "Sol"
        },
        {
          "name": "Psy"
        }
      ],
      "possibleFaction": [
        {
          "name": "Jaune"
        },
        {
          "name": "Verte"
        },
        {
          "name": "Marron"
        }
      ],
      "money": [
        {
          "moneyValue": "Int - Argent donné"
        }
      ],
      "miscInformations": {
        "male": true,
        "female": false,
        "maleMugshot": "Ruinemaniac",
        "femaleMugshot": "Ruinemaniac"
      }
    },
    {
      "className": "Saltimbanque",
      "ageRange": {
        "min": 24,
        "max": 47
      },
      "biome": [
      ],
      "predilectionType": [
        {
          "name": "Feu"
        },
        {
          "name": "Eau"
        }
      ],
      "possibleFaction": [
        {
          "name": "Rouge"
        },
        {
          "name": "Bleue"
        },
        {
          "name": "Verte"
        }
      ],
      "money": [
        {
          "moneyValue": "Int - Argent donné"
        }
      ],
      "miscInformations": {
        "male": true,
        "female": false,
        "maleMugshot": "Saltimbanque",
        "femaleMugshot": "Saltimbanque"
      }
    },
    {
      "className": "Scientifique",
      "ageRange": {
        "min": 23,
        "max": 55
      },
      "biome": [
      ],
      "predilectionType": [
        {
          "name": "Psy"
        },
        {
          "name": "Acier"
        },
        {
          "name": "Électrik"
        }
      ],
      "possibleFaction": [
        {
          "name": "Jaune"
        },
        {
          "name": "Verte"
        },
        {
          "name": "Bleue"
        }
      ],
      "money": [
        {
          "moneyValue": "Int - Argent donné"
        }
      ],
      "miscInformations": {
        "male": true,
        "female": true,
        "maleMugshot": "Scientifique (M)",
        "femaleMugshot": "Scientifique (F)"
      }
    },
    {
      "className": "Entomomaniac",
      "ageRange": {
        "min": 16,
        "max": 26
      },
      "biome": [
      ],
      "predilectionType": [
        {
          "name": "Insecte"
        }
      ],
      "possibleFaction": [
        {
          "name": "Marron"
        },
        {
          "name": "Verte"
        },
        {
          "name": "Rouge"
        }
      ],
      "money": [
        {
          "moneyValue": "Int - Argent donné"
        }
      ],
      "miscInformations": {
        "male": true,
        "female": false,
        "maleMugshot": "Entomomaniac",
        "femaleMugshot": "Entomomaniac"
      }
    },
    {
      "className": "Serveur",
      "ageRange": {
        "min": 16,
        "max": 42
      },
      "biome": [
      ],
      "predilectionType": [
        {
          "name": "Aucun"
        }
      ],
      "possibleFaction": [
        {
          "name": "Bleue"
        },
        {
          "name": "Verte"
        },
        {
          "name": "Jaune"
        }
      ],
      "money": [
        {
          "moneyValue": "Int - Argent donné"
        }
      ],
      "miscInformations": {
        "male": true,
        "female": false,
        "maleMugshot": "Serveur",
        "femaleMugshot": "Serveur"
      }
    },
    {
      "className": "Serveuse",
      "ageRange": {
        "min": 16,
        "max": 42
      },
      "biome": [
      ],
      "predilectionType": [
        {
          "name": "Aucun"
        }
      ],
      "possibleFaction": [
        {
          "name": "Bleue"
        },
        {
          "name": "Verte"
        },
        {
          "name": "Jaune"
        }
      ],
      "money": [
        {
          "moneyValue": "Int - Argent donné"
        }
      ],
      "miscInformations": {
        "male": false,
        "female": true,
        "maleMugshot": "Serveuse",
        "femaleMugshot": "Serveuse"
      }
    },
    {
      "className": "Topdresseur",
      "ageRange": {
        "min": 22,
        "max": 44
      },
      "biome": [
      ],
      "predilectionType": [
        {
          "name": "Aucun"
        }
      ],
      "possibleFaction": [
        {
          "name": "Marron"
        },
        {
          "name": "Verte"
        },
        {
          "name": "Rouge"
        },
        {
          "name": "Jaune"
        },
        {
          "name": "Rose"
        },
        {
          "name": "Bleue"
        }
      ],
      "money": [
        {
          "moneyValue": "Int - Argent donné"
        }
      ],
      "miscInformations": {
        "male": true,
        "female": false,
        "maleMugshot": "Top Dresseur",
        "femaleMugshot": "Top Dresseur"
      }
    },
    {
      "className": "Topdresseuse",
      "ageRange": {
        "min": 23,
        "max": 44
      },
      "biome": [
      ],
      "predilectionType": [
        {
          "name": "Aucun"
        }
      ],
      "possibleFaction": [
        {
          "name": "Marron"
        },
        {
          "name": "Verte"
        },
        {
          "name": "Rouge"
        },
        {
          "name": "Jaune"
        },
        {
          "name": "Rose"
        },
        {
          "name": "Bleue"
        }
      ],
      "money": [
        {
          "moneyValue": "Int - Argent donné"
        }
      ],
      "miscInformations": {
        "male": false,
        "female": true,
        "maleMugshot": "Top Dresseuse",
        "femaleMugshot": "Top Dresseuse"
      }
    },
    {
      "className": "Touriste",
      "ageRange": {
        "min": 20,
        "max": 38
      },
      "biome": [
      ],
      "predilectionType": [
        {
          "name": "Aucun"
        }
      ],
      "possibleFaction": [
        {
          "name": "Bleue"
        },
        {
          "name": "Rose"
        },
        {
          "name": "Rouge"
        }
      ],
      "money": [
        {
          "moneyValue": "Int - Argent donné"
        }
      ],
      "miscInformations": {
        "male": true,
        "female": true,
        "maleMugshot": "Touriste (M)",
        "femaleMugshot": "Touriste (F)"
      }
    },
    {
      "className": "Vaurien",
      "ageRange": {
        "min": 16,
        "max": 34
      },
      "biome": [
      ],
      "predilectionType": [
        {
          "name": "Poison"
        },
        {
          "name": "Ténèbres"
        }
      ],
      "possibleFaction": [
        {
          "name": "Marron"
        },
        {
          "name": "Jaune"
        },
        {
          "name": "Bleue"
        }
      ],
      "money": [
        {
          "moneyValue": "Int - Argent donné"
        }
      ],
      "miscInformations": {
        "male": true,
        "female": false,
        "maleMugshot": "Vaurien",
        "femaleMugshot": "Vaurien"
      }
    },
    {
      "className": "Vaurienne",
      "ageRange": {
        "min": 16,
        "max": 34
      },
      "biome": [
      ],
      "predilectionType": [
        {
          "name": "Poison"
        },
        {
          "name": "Ténèbres"
        }
      ],
      "possibleFaction": [
        {
          "name": "Marron"
        },
        {
          "name": "Jaune"
        },
        {
          "name": "Bleue"
        }
      ],
      "money": [
        {
          "moneyValue": "Int - Argent donné"
        }
      ],
      "miscInformations": {
        "male": false,
        "female": true,
        "maleMugshot": "Vaurienne",
        "femaleMugshot": "Vaurienne"
      }
    },
    {
      "className": "Vénérable",
      "ageRange": {
        "min": 45,
        "max": 75
      },
      "biome": [
      ],
      "predilectionType": [
        {
          "name": "Aucun"
        }
      ],
      "possibleFaction": [
        {
          "name": "Marron"
        },
        {
          "name": "Verte"
        },
        {
          "name": "Rouge"
        },
        {
          "name": "Jaune"
        },
        {
          "name": "Rose"
        },
        {
          "name": "Bleue"
        }
      ],
      "money": [
        {
          "moneyValue": "Int - Argent donné"
        }
      ],
      "miscInformations": {
        "male": true,
        "female": true,
        "maleMugshot": "Vénérable (M)",
        "femaleMugshot": "Vénérable (F)"
      }
    },
    {
      "className": "Fan de Camping",
      "ageRange": {
        "min": 16,
        "max": 21
      },
      "biome": [
      ],
      "predilectionType": [
        {
          "name": "Aucun"
        }
      ],
      "possibleFaction": [
        {
          "name": "Marron"
        },
        {
          "name": "Rouge"
        },
        {
          "name": "Jaune"
        }
      ],
      "money": [
        {
          "moneyValue": "Int - Argent donné"
        }
      ],
      "miscInformations": {
        "male": true,
        "female": false,
        "maleMugshot": "Fan de Camping",
        "femaleMugshot": "Fan de Pique-Nique"
      }
    },   
    {
      "className": "Fan de Pique-Nique",
      "ageRange": {
        "min": 16,
        "max": 21
      },
      "biome": [
      ],
      "predilectionType": [
        {
          "name": "Aucun"
        }
      ],
      "possibleFaction": [
        {
          "name": "Marron"
        },
        {
          "name": "Rouge"
        },
        {
          "name": "Jaune"
        }
      ],
      "money": [
        {
          "moneyValue": "Int - Argent donné"
        }
      ],
      "miscInformations": {
        "male": false,
        "female": true,
        "maleMugshot": "Fan de Camping",
        "femaleMugshot": "Fan de Pique-Nique"
      }
    }
  ]
}